autostart = False
version = 0.8.3
[127.0.0.1:7200]
    workingdir = C:\Users\ActionMystique\Documents\Missions\GNS3\Temp
    udp = 10000
    [[3640]]
        image = C:\Users\ActionMystique\Documents\Missions\IOS\Binaries\c3640-jk9o3s-mz.124-16a.bin
        idlepc = 0x604d1c74
        sparsemem = True
        ghostios = True
        chassis = 3640
    [[ROUTER R4]]
        model = 3640
        console = 2003
        aux = 2100
        cnfg = EIGRP Stub Leak Map_configs\R4.cfg
        slot0 = NM-1FE-TX
        f0/0 = R3 f0/0
        x = -463.628029743
        y = 125.785317268
        z = 1.0
    [[ROUTER R1]]
        model = 3640
        console = 2000
        aux = 2101
        cnfg = EIGRP Stub Leak Map_configs\R1.cfg
        slot0 = NM-1FE-TX
        f0/0 = R3 f1/0
        x = -584.693434176
        y = -235.526911935
        z = 1.0
    [[ROUTER R2]]
        model = 3640
        console = 2001
        aux = 2102
        cnfg = EIGRP Stub Leak Map_configs\R2.cfg
        slot0 = NM-1FE-TX
        f0/0 = R3 f2/0
        x = -346.955410847
        y = -242.61731573
        z = 1.0
    [[ROUTER R3]]
        model = 3640
        console = 2002
        aux = 2103
        cnfg = EIGRP Stub Leak Map_configs\R3.cfg
        slot0 = NM-1FE-TX
        f0/0 = R4 f0/0
        slot1 = NM-1FE-TX
        f1/0 = R1 f0/0
        slot2 = NM-1FE-TX
        f2/0 = R2 f0/0
        x = -463.628029743
        y = -60.1837661841
        z = 1.0
[GNS3-DATA]
    configs = EIGRP Stub Leak Map_configs
    m11 = 1.41421356237
    m22 = 1.41421356237
    [[NOTE 1]]
        text = "David"
        x = -632.860569162
        y = -227.374675043
        color = "#323232"
    [[NOTE 2]]
        text = "Pamela"
        x = -284.256926037
        y = -234.445742855
        color = "#323232"
    [[NOTE 3]]
        text = "Carmen"
        x = -395.979797464
        y = 132.542676581
        color = "#323232"
    [[NOTE 4]]
        text = "Yasmine"
        x = -398.808224589
        y = -47.7695526217
        color = "#323232"
    [[NOTE 5]]
        text = "192.168.13.0 /24"
        x = -619.425540319
        y = -134.743686708
        color = "#0000ff"
    [[NOTE 6]]
        text = "192.168.23.0 /24"
        x = -362.745778749
        y = -137.572113832
        color = "#0000ff"
    [[NOTE 7]]
        text = "192.168.34.0 /24"
        x = -552.250396107
        y = 46.9827560573
        color = "#0000ff"
    [[NOTE 8]]
        text = ".3"
        x = -460.326514552
        y = -97.9741340859
        color = "#0000ff"
    [[NOTE 9]]
        text = ".3"
        x = -424.264068712
        y = -98.6812408671
        color = "#0000ff"
    [[NOTE 10]]
        text = ".1"
        x = -522.551911297
        y = -194.140656327
        color = "#0000ff"
    [[NOTE 11]]
        text = ".2"
        x = -359.210244843
        y = -200.504617358
        color = "#0000ff"
    [[NOTE 12]]
        text = "L0:         4.4.4.4 /24\nL1: 44.44.44.44 /24"
        x = -496.388960393
        y = 191.939646201
        color = "#0000ff"
    [[NOTE 13]]
        text = ".3"
        x = -425.678282274
        y = -17.3639610307
        color = "#0000ff"
    [[NOTE 14]]
        text = ".4"
        x = -429.21381618
        y = 104.258405333
        color = "#0000ff"
