autostart = False
version = 0.8.3
[127.0.0.1:7200]
    workingdir = C:\Users\ActionMystique\Documents\Missions\GNS3\Temp
    udp = 10000
    [[3640]]
        image = C:\Users\ActionMystique\Documents\Missions\IOS\Binaries\c3640-jk9o3s-mz.124-16a.bin
        idlepc = 0x60530870
        chassis = 3640
    [[7200]]
        image = C:\Users\ActionMystique\Documents\Missions\IOS\Binaries\c7200-adventerprisek9-mz.124-24.T.image
        ram = 96
        idlepc = 0x60845824
        sparsemem = True
        ghostios = True
    [[ROUTER R4]]
        model = 3640
        console = 2004
        aux = 2104
        cnfg = initial.configs\R4.initial.config.cfg
        slot0 = NM-4E
        e0/0 = R7 f1/4
        e0/1 = R8 f1/4
        slot1 = NM-4T
        s1/0 = FRSW 4
        s1/1 = R5 s1/1
        x = -326.059647699
        y = -103.871137119
        z = 1.0
    [[ROUTER R5]]
        model = 3640
        console = 2005
        aux = 2105
        cnfg = initial.configs\R5.initial.config.cfg
        slot0 = NM-4E
        e0/0 = R7 f1/5
        e0/1 = R8 f1/5
        slot1 = NM-4T
        s1/0 = FRSW 5
        s1/1 = R4 s1/1
        x = 243.942756306
        y = 22.2127135314
        z = 1.0
    [[ROUTER R6]]
        model = 3640
        console = 2006
        aux = 2106
        cnfg = initial.configs\R6.initial.config.cfg
        slot0 = NM-4E
        e0/0 = R7 f1/6
        e0/1 = R8 f1/6
        slot1 = NM-4T
        s1/0 = FRSW 6
        x = 171.303328511
        y = 115.158404632
        z = 1.0
    [[ROUTER R7]]
        model = 3640
        console = 2007
        aux = 2107
        cnfg = initial.configs\R7.initial.config.cfg
        slot1 = NM-16ESW
        f1/1 = R1 f0/0
        f1/2 = R2 f0/0
        f1/3 = R3 e0/0
        f1/4 = R4 e0/0
        f1/5 = R5 e0/0
        f1/6 = R6 e0/0
        f1/10 = BB3 e0/0
        f1/13 = R8 f1/13
        f1/14 = R8 f1/14
        f1/15 = R8 f1/15
        x = -78.201355351
        y = -277.920661368
        z = 1.0
    [[ROUTER R1]]
        console = 2001
        aux = 2101
        cnfg = initial.configs\R1.initial.config.cfg
        slot0 = C7200-IO-FE
        f0/0 = R7 f1/1
        slot2 = PA-4T+
        s2/0 = FRSW 1
        s2/1 = R3 s1/2
        slot3 = PA-A1
        a3/0 = CellModeATM a1/0
        slot4 = PA-A1
        a4/0 = A1 1
        x = -263.265496779
        y = -230.91069037
        z = 1.0
    [[ROUTER R2]]
        console = 2002
        aux = 2102
        cnfg = initial.configs\R2.initial.config.cfg
        slot0 = C7200-IO-FE
        f0/0 = R7 f1/2
        slot2 = PA-4T+
        s2/0 = FRSW 2
        s2/1 = R3 s1/3
        slot3 = PA-A1
        a3/0 = CellModeATM a2/0
        slot4 = PA-A1
        a4/0 = A1 2
        x = -336.329787498
        y = 23.8012333809
        z = 1.0
    [[ROUTER R3]]
        model = 3640
        console = 2003
        aux = 2103
        cnfg = initial.configs\R3.initial.config.cfg
        slot0 = NM-4E
        e0/0 = R7 f1/3
        e0/1 = R8 f1/3
        slot1 = NM-4T
        s1/0 = FRSW 3
        s1/1 = FRSW 13
        s1/2 = R1 s2/1
        s1/3 = R2 s2/1
        x = 233.19171807
        y = -166.546890318
        z = 1.0
[127.0.0.1:7201]
    workingdir = C:\Users\ActionMystique\Documents\Missions\GNS3\Temp
    udp = 11000
    [[7200]]
        image = C:\Users\ActionMystique\Documents\Missions\IOS\Binaries\c7200-adventerprisek9-mz.124-24.T.image
        ram = 96
        idlepc = 0x60845824
    [[3640]]
        image = C:\Users\ActionMystique\Documents\Missions\IOS\Binaries\c3640-jk9o3s-mz.124-16a.bin
        idlepc = 0x60530870
        chassis = 3640
    [[ROUTER CellModeATM]]
        console = 2020
        aux = 2120
        cnfg = initial.configs\CellModeATM.initial.config.cfg
        slot0 = C7200-IO-FE
        slot1 = PA-A1
        a1/0 = R1 a3/0
        slot2 = PA-A1
        a2/0 = R2 a3/0
        slot3 = PA-A1
        a3/0 = R9 a3/0
        x = -478.245699235
        y = -149.31452628
        z = 1.0
    [[FRSW FRSW]]
        1:102 = 2:201
        1:103 = 3:301
        1:104 = 4:401
        1:105 = 5:501
        1:113 = 13:311
        2:201 = 1:102
        2:203 = 3:302
        2:204 = 4:402
        2:205 = 5:502
        2:213 = 13:312
        3:301 = 1:103
        3:302 = 2:203
        3:304 = 4:403
        3:305 = 5:503
        4:401 = 1:104
        4:402 = 2:204
        4:403 = 3:304
        4:405 = 5:504
        4:413 = 13:314
        5:501 = 1:105
        5:502 = 2:205
        5:503 = 3:305
        5:504 = 4:405
        5:513 = 13:315
        6:51 = 21:51
        6:100 = 21:100
        6:101 = 21:101
        6:201 = 21:201
        6:301 = 21:301
        6:401 = 21:401
        13:311 = 1:113
        13:312 = 2:213
        13:314 = 4:413
        13:315 = 5:513
        21:51 = 6:51
        21:100 = 6:100
        21:101 = 6:101
        21:201 = 6:201
        21:301 = 6:301
        21:401 = 6:401
        1 = R1 s2/0
        2 = R2 s2/0
        3 = R3 s1/0
        4 = R4 s1/0
        5 = R5 s1/0
        6 = R6 s1/0
        13 = R3 s1/1
        21 = BB1 s1/1
        x = -204.916594215
        y = 139.472225505
        z = 1.0
    [[ROUTER R8]]
        model = 3640
        console = 2008
        aux = 2108
        cnfg = initial.configs\R8.initial.config.cfg
        slot1 = NM-16ESW
        f1/3 = R3 e0/1
        f1/4 = R4 e0/1
        f1/5 = R5 e0/1
        f1/6 = R6 e0/1
        f1/10 = BB2 e0/0
        f1/13 = R7 f1/13
        f1/14 = R7 f1/14
        f1/15 = R7 f1/15
        x = 113.435275686
        y = -270.822559636
        z = 1.0
    [[ROUTER R9]]
        console = 2009
        aux = 2109
        cnfg = initial.configs\R9.initial.config.cfg
        slot0 = C7200-IO-FE
        slot3 = PA-A1
        a3/0 = CellModeATM a3/0
        slot4 = PA-A1
        a4/0 = A1 3
        x = 257.006270671
        y = -82.7762096448
        z = 1.0
    [[ATMSW A1]]
        1:0:102 = 2:0:201
        1:0:109 = 3:0:901
        2:0:201 = 1:0:102
        2:0:209 = 3:0:902
        3:0:901 = 1:0:109
        3:0:902 = 2:0:209
        1 = R1 a4/0
        2 = R2 a4/0
        3 = R9 a4/0
        x = -486.846019853
        y = 148.047482593
        z = 1.0
    [[ROUTER TermServ]]
        model = 3640
        console = 2030
        aux = 2130
        cnfg = initial.configs\TermServ.initial.config.cfg
        x = 349.433753526
        y = -184.314218738
        z = 1.0
    [[ROUTER BB3]]
        model = 3640
        console = 2013
        aux = 2113
        cnfg = initial.configs\BB3.initial.config.cfg
        slot0 = NM-4E
        e0/0 = R7 f1/10
        slot1 = NM-4T
        s1/0 = BB1 s1/0
        x = 98.7687262465
        y = 190.248236641
        z = 1.0
    [[ROUTER BB2]]
        model = 3640
        console = 2012
        aux = 2112
        cnfg = initial.configs\BB2.initial.config.cfg
        slot0 = NM-4E
        e0/0 = R8 f1/10
        x = 270.07949487
        y = -266.676540636
        z = 1.0
    [[ROUTER BB1]]
        model = 3640
        console = 2011
        aux = 2111
        cnfg = initial.configs\BB1.initial.config.cfg
        slot1 = NM-4T
        s1/0 = BB3 s1/0
        s1/1 = FRSW 21
        x = -66.28682662
        y = 215.478577876
        z = 1.0
[GNS3-DATA]
    configs = C:initial.configs
