Jan 11 11:10:17.089 HYPERVISOR: Release 0.2.14-x86/Windows (tag 2014092320)
Jan 11 11:10:17.089 HYPERVISOR: Started on IP = 127.0.0.1, TCP port = 7210.
Jan 11 11:10:17.658 HYPERVISOR: exec_cmd: hypervisor version 
Jan 11 11:10:17.658 HYPERVISOR: exec_cmd: hypervisor uuid 
Jan 11 11:10:17.658 HYPERVISOR: exec_cmd: hypervisor working_dir C:/Users/ActionMystique/GNS3/projects/CCNP-Security/FIREWALL/Jean-Christophe/1+/Data Center ASA - ASDM - AAA - VMs/Data Center ASA - ASDM - AAA - VMs-files\dynamips 
Jan 11 11:10:17.658 GENERAL: working_dir=C:/Users/ActionMystique/GNS3/projects/CCNP-Security/FIREWALL/Jean-Christophe/1+/Data Center ASA - ASDM - AAA - VMs/Data Center ASA - ASDM - AAA - VMs-files\dynamips
Jan 11 11:10:17.658 HYPERVISOR: exec_cmd: vm create SW0_Internet 11 c3725 
Jan 11 11:10:17.658 VM: VM SW0_Internet created.
Jan 11 11:10:17.658 HYPERVISOR: exec_cmd: vm set_con_tcp_port SW0_Internet 2008 
Jan 11 11:10:17.658 HYPERVISOR: exec_cmd: vm set_aux_tcp_port SW0_Internet 2508 
Jan 11 11:10:17.658 HYPERVISOR: exec_cmd: c3725 get_mac_addr SW0_Internet 
Jan 11 11:10:17.658 HYPERVISOR: exec_cmd: vm set_ios SW0_Internet C:\Users\ActionMystique\GNS3\images\IOS\c3725-adventerprisek9-mz.124-15.T10.image 
Jan 11 11:10:17.658 HYPERVISOR: exec_cmd: vm set_sparse_mem SW0_Internet 1 
Jan 11 11:10:17.658 HYPERVISOR: exec_cmd: vm set_ram_mmap SW0_Internet 1 
Jan 11 11:10:17.658 HYPERVISOR: exec_cmd: vm set_con_tcp_port SW0_Internet 2113 
Jan 11 11:10:17.658 HYPERVISOR: exec_cmd: vm set_aux_tcp_port SW0_Internet 2513 
Jan 11 11:10:17.658 HYPERVISOR: exec_cmd: c3725 set_mac_addr SW0_Internet c20b.0758.0000 
Jan 11 11:10:17.658 HYPERVISOR: exec_cmd: vm set_ghost_status SW0_Internet 2 
Jan 11 11:10:17.658 HYPERVISOR: exec_cmd: vm set_ghost_file SW0_Internet c3725-adventerprisek9-mz.124-15.T10.image-128.ghost 
Jan 11 11:10:28.598 HYPERVISOR: exec_cmd: vm set_config SW0_Internet configs\i11_startup-config.cfg 
Jan 11 11:10:28.598 HYPERVISOR: exec_cmd: vm get_status SW0_Internet 
Jan 11 11:10:28.598 HYPERVISOR: exec_cmd: vm set_idle_pc SW0_Internet 0x602649b4 
Jan 11 11:10:28.598 HYPERVISOR: exec_cmd: vm get_status SW0_Internet 
Jan 11 11:10:28.598 HYPERVISOR: exec_cmd: vm slot_add_binding SW0_Internet 1 0 NM-16ESW 
Jan 11 11:10:28.598 HYPERVISOR: exec_cmd: vm get_status SW0_Internet 
Jan 11 11:10:29.088 HYPERVISOR: exec_cmd: nio create_udp_auto nio_udp_auto64 127.0.0.1 10001 20000 
Jan 11 11:10:29.107 HYPERVISOR: exec_cmd: nio create_udp_auto nio_udp_auto65 127.0.0.1 10001 20000 
Jan 11 11:10:31.339 HYPERVISOR: exec_cmd: nio connect_udp_auto nio_udp_auto64 127.0.0.1 40007 
Jan 11 11:10:31.339 HYPERVISOR: exec_cmd: vm slot_add_nio_binding SW0_Internet 1 1 nio_udp_auto64 
Jan 11 11:10:31.339 HYPERVISOR: exec_cmd: vm get_status SW0_Internet 
Jan 11 11:10:31.359 HYPERVISOR: exec_cmd: nio connect_udp_auto nio_udp_auto65 127.0.0.1 40008 
Jan 11 11:10:31.359 HYPERVISOR: exec_cmd: vm slot_add_nio_binding SW0_Internet 1 2 nio_udp_auto65 
Jan 11 11:10:31.359 HYPERVISOR: exec_cmd: vm get_status SW0_Internet 
Jan 11 11:11:38.717 HYPERVISOR: exec_cmd: nio create_gen_eth nio_gen_eth1 \Device\NPF_{1C11AD89-4BB0-4562-BB87-E276A0AA0D5B} 
Jan 11 11:11:38.738 HYPERVISOR: exec_cmd: vm slot_add_nio_binding SW0_Internet 1 0 nio_gen_eth1 
Jan 11 11:11:38.738 HYPERVISOR: exec_cmd: vm get_status SW0_Internet 
Jan 11 11:11:54.247 HYPERVISOR: exec_cmd: vm extract_config SW0_Internet 
Jan 11 11:16:54.386 HYPERVISOR: exec_cmd: vm get_status SW0_Internet 
Jan 11 11:16:54.387 HYPERVISOR: exec_cmd: vm start SW0_Internet 
Jan 11 11:16:54.395 GHOST: loaded ghost image c3725-adventerprisek9-mz.124-15.T10.image-128.ghost (fd=15) at addr=0xedc50000 (size=0x10000000)
Jan 11 11:16:54.395 GHOST: loaded image c3725-adventerprisek9-mz.124-15.T10.image-128.ghost successfully.
Jan 11 11:22:47.077 HYPERVISOR: exec_cmd: vm get_status SW0_Internet 
Jan 11 11:22:47.077 HYPERVISOR: exec_cmd: vm stop SW0_Internet 
Jan 11 11:22:47.202 GHOST: unloaded ghost image c3725-adventerprisek9-mz.124-15.T10.image-128.ghost (fd=15) at addr=0xedc50000 (size=0x10000000)
Jan 11 11:22:47.218 VM: VM SW0_Internet shutdown.
Jan 11 11:22:55.905 HYPERVISOR: exec_cmd: vm extract_config SW0_Internet 
Jan 11 11:22:58.405 HYPERVISOR: Stopped.
Jan 11 11:22:58.405 VM: VM SW0_Internet destroyed.
Jan 11 11:22:58.421 GENERAL: reset done.
