Jan 11 11:10:17.694 HYPERVISOR: Release 0.2.14-x86/Windows (tag 2014092320)
Jan 11 11:10:17.694 HYPERVISOR: Started on IP = 127.0.0.1, TCP port = 7211.
Jan 11 11:10:18.281 HYPERVISOR: exec_cmd: hypervisor version 
Jan 11 11:10:18.281 HYPERVISOR: exec_cmd: hypervisor uuid 
Jan 11 11:10:18.281 HYPERVISOR: exec_cmd: hypervisor working_dir C:/Users/ActionMystique/GNS3/projects/CCNP-Security/FIREWALL/Jean-Christophe/1+/Data Center ASA - ASDM - AAA - VMs/Data Center ASA - ASDM - AAA - VMs-files\dynamips 
Jan 11 11:10:18.281 GENERAL: working_dir=C:/Users/ActionMystique/GNS3/projects/CCNP-Security/FIREWALL/Jean-Christophe/1+/Data Center ASA - ASDM - AAA - VMs/Data Center ASA - ASDM - AAA - VMs-files\dynamips
Jan 11 11:10:18.281 HYPERVISOR: exec_cmd: vm create SW0_Management 12 c3725 
Jan 11 11:10:18.281 VM: VM SW0_Management created.
Jan 11 11:10:18.281 HYPERVISOR: exec_cmd: vm set_con_tcp_port SW0_Management 2008 
Jan 11 11:10:18.281 HYPERVISOR: exec_cmd: vm set_aux_tcp_port SW0_Management 2508 
Jan 11 11:10:18.281 HYPERVISOR: exec_cmd: c3725 get_mac_addr SW0_Management 
Jan 11 11:10:18.281 HYPERVISOR: exec_cmd: vm set_ios SW0_Management C:\Users\ActionMystique\GNS3\images\IOS\c3725-adventerprisek9-mz.124-15.T10.image 
Jan 11 11:10:18.281 HYPERVISOR: exec_cmd: vm set_sparse_mem SW0_Management 1 
Jan 11 11:10:18.281 HYPERVISOR: exec_cmd: vm set_ram_mmap SW0_Management 1 
Jan 11 11:10:18.281 HYPERVISOR: exec_cmd: vm set_con_tcp_port SW0_Management 2112 
Jan 11 11:10:18.281 HYPERVISOR: exec_cmd: vm set_aux_tcp_port SW0_Management 2512 
Jan 11 11:10:18.281 HYPERVISOR: exec_cmd: c3725 set_mac_addr SW0_Management c20c.0f9c.0000 
Jan 11 11:10:18.281 HYPERVISOR: exec_cmd: vm set_ghost_status SW0_Management 2 
Jan 11 11:10:18.281 HYPERVISOR: exec_cmd: vm set_ghost_file SW0_Management c3725-adventerprisek9-mz.124-15.T10.image-128.ghost 
Jan 11 11:10:28.618 HYPERVISOR: exec_cmd: vm set_config SW0_Management configs\i12_startup-config.cfg 
Jan 11 11:10:28.618 HYPERVISOR: exec_cmd: vm get_status SW0_Management 
Jan 11 11:10:28.618 HYPERVISOR: exec_cmd: vm set_idle_pc SW0_Management 0x602649b4 
Jan 11 11:10:28.618 HYPERVISOR: exec_cmd: vm get_status SW0_Management 
Jan 11 11:10:28.618 HYPERVISOR: exec_cmd: vm slot_add_binding SW0_Management 1 0 NM-16ESW 
Jan 11 11:10:28.618 HYPERVISOR: exec_cmd: vm get_status SW0_Management 
Jan 11 11:10:29.107 HYPERVISOR: exec_cmd: nio create_udp_auto nio_udp_auto66 127.0.0.1 10001 20000 
Jan 11 11:10:29.127 HYPERVISOR: exec_cmd: nio create_udp_auto nio_udp_auto67 127.0.0.1 10001 20000 
Jan 11 11:10:30.497 HYPERVISOR: exec_cmd: nio create_gen_eth nio_gen_eth0 \Device\NPF_{DD0FD070-70A2-4629-9E4E-CE7A43360444} 
Jan 11 11:10:30.517 HYPERVISOR: exec_cmd: vm slot_add_nio_binding SW0_Management 1 0 nio_gen_eth0 
Jan 11 11:10:30.517 HYPERVISOR: exec_cmd: vm get_status SW0_Management 
Jan 11 11:10:31.379 HYPERVISOR: exec_cmd: nio connect_udp_auto nio_udp_auto66 127.0.0.1 40009 
Jan 11 11:10:31.379 HYPERVISOR: exec_cmd: vm slot_add_nio_binding SW0_Management 1 1 nio_udp_auto66 
Jan 11 11:10:31.379 HYPERVISOR: exec_cmd: vm get_status SW0_Management 
Jan 11 11:10:31.379 HYPERVISOR: exec_cmd: nio connect_udp_auto nio_udp_auto67 127.0.0.1 40010 
Jan 11 11:10:31.379 HYPERVISOR: exec_cmd: vm slot_add_nio_binding SW0_Management 1 2 nio_udp_auto67 
Jan 11 11:10:31.379 HYPERVISOR: exec_cmd: vm get_status SW0_Management 
Jan 11 11:10:48.857 HYPERVISOR: exec_cmd: vm get_status SW0_Management 
Jan 11 11:10:48.858 HYPERVISOR: exec_cmd: vm start SW0_Management 
Jan 11 11:10:48.879 GHOST: loaded ghost image c3725-adventerprisek9-mz.124-15.T10.image-128.ghost (fd=15) at addr=0xedc50000 (size=0x10000000)
Jan 11 11:10:48.879 GHOST: loaded image c3725-adventerprisek9-mz.124-15.T10.image-128.ghost successfully.
Jan 11 11:11:54.251 HYPERVISOR: exec_cmd: vm extract_config SW0_Management 
Jan 11 11:22:46.988 HYPERVISOR: exec_cmd: vm get_status SW0_Management 
Jan 11 11:22:46.989 HYPERVISOR: exec_cmd: vm stop SW0_Management 
Jan 11 11:22:47.061 GHOST: unloaded ghost image c3725-adventerprisek9-mz.124-15.T10.image-128.ghost (fd=15) at addr=0xedc50000 (size=0x10000000)
Jan 11 11:22:47.077 VM: VM SW0_Management shutdown.
Jan 11 11:22:55.905 HYPERVISOR: exec_cmd: vm extract_config SW0_Management 
Jan 11 11:22:58.405 HYPERVISOR: Stopped.
Jan 11 11:22:58.405 VM: VM SW0_Management destroyed.
Jan 11 11:22:58.436 GENERAL: reset done.
