Aug 31 18:28:02.188 HYPERVISOR: Release 0.2.16-amd64/Linux (tag 2015060118)
Aug 31 18:28:02.188 HYPERVISOR: Started on IP = 127.0.0.1, TCP port = 48861.
Aug 31 18:28:02.214 HYPERVISOR: exec_cmd: hypervisor version 
Aug 31 18:28:02.215 HYPERVISOR: exec_cmd: hypervisor working_dir /media/actionmystique/SAMSUNG-850-Ext4/Labs/GNS3/Route Reflectors/project-files/dynamips 
Aug 31 18:28:02.215 GENERAL: working_dir=/media/actionmystique/SAMSUNG-850-Ext4/Labs/GNS3/Route Reflectors/project-files/dynamips
Aug 31 18:28:02.216 HYPERVISOR: exec_cmd: vm create Client-Geneva 5 c7200 
Aug 31 18:28:02.216 VM: VM Client-Geneva created.
Aug 31 18:28:02.217 HYPERVISOR: exec_cmd: vm set_con_tcp_port Client-Geneva 2106 
Aug 31 18:28:02.218 HYPERVISOR: exec_cmd: vm set_aux_tcp_port Client-Geneva 2506 
Aug 31 18:28:02.219 HYPERVISOR: exec_cmd: c7200 get_mac_addr Client-Geneva 
Aug 31 18:28:02.221 HYPERVISOR: exec_cmd: vm get_status Client-Geneva 
Aug 31 18:28:02.222 HYPERVISOR: exec_cmd: vm slot_add_binding Client-Geneva 0 0 C7200-IO-FE 
Aug 31 18:28:02.225 HYPERVISOR: exec_cmd: vm get_status Client-Geneva 
Aug 31 18:28:02.226 HYPERVISOR: exec_cmd: vm set_idle_pc Client-Geneva 0x6062d534 
Aug 31 18:28:02.228 HYPERVISOR: exec_cmd: vm set_ram Client-Geneva 512 
Aug 31 18:28:02.230 HYPERVISOR: exec_cmd: vm get_status Client-Geneva 
Aug 31 18:28:02.235 HYPERVISOR: exec_cmd: vm slot_add_binding Client-Geneva 1 0 PA-GE 
Aug 31 18:28:02.243 HYPERVISOR: exec_cmd: vm get_status Client-Geneva 
Aug 31 18:28:02.246 HYPERVISOR: exec_cmd: vm slot_remove_binding Client-Geneva 0 0 
Aug 31 18:28:02.247 HYPERVISOR: exec_cmd: vm get_status Client-Geneva 
Aug 31 18:28:02.249 HYPERVISOR: exec_cmd: vm slot_add_binding Client-Geneva 0 0 C7200-IO-GE-E 
Aug 31 18:28:02.250 HYPERVISOR: exec_cmd: vm set_ios Client-Geneva /media/actionmystique/SAMSUNG-850-Ext4/Images/GNS3/IOS/c7200-adventerprisek9-mz.152-4.M2.image 
Aug 31 18:28:02.252 HYPERVISOR: exec_cmd: vm set_config Client-Geneva configs/i5_startup-config.cfg 
Aug 31 18:28:02.701 HYPERVISOR: exec_cmd: vm extract_config Client-Geneva 
Aug 31 18:28:02.718 HYPERVISOR: exec_cmd: nio create_udp udp-0fabcdb7-c1d4-4edb-841c-2e2159d5ffb2 15002 127.0.0.1 15003 
Aug 31 18:28:02.719 HYPERVISOR: exec_cmd: vm slot_add_nio_binding Client-Geneva 1 0 udp-0fabcdb7-c1d4-4edb-841c-2e2159d5ffb2 
Aug 31 18:28:02.720 HYPERVISOR: exec_cmd: vm get_status Client-Geneva 
Aug 31 18:28:02.792 HYPERVISOR: exec_cmd: nio create_udp udp-35f2d227-4d7a-4036-9940-1cd5b4841edf 15010 127.0.0.1 15012 
Aug 31 18:28:02.792 HYPERVISOR: exec_cmd: vm slot_add_nio_binding Client-Geneva 0 0 udp-35f2d227-4d7a-4036-9940-1cd5b4841edf 
Aug 31 18:28:02.792 HYPERVISOR: exec_cmd: vm get_status Client-Geneva 
Aug 31 18:28:07.800 HYPERVISOR: exec_cmd: vm set_ghost_status Client-Geneva 2 
Aug 31 18:28:07.800 HYPERVISOR: exec_cmd: vm set_ghost_file Client-Geneva c7200-adventerprisek9-mz.152-4.M2.image-512.ghost 
Aug 31 18:28:07.801 HYPERVISOR: exec_cmd: vm get_status Client-Geneva 
Aug 31 18:28:07.801 HYPERVISOR: exec_cmd: vm start Client-Geneva 
Aug 31 18:40:58.220 HYPERVISOR: exec_cmd: vm extract_config Client-Geneva 
Aug 31 18:46:15.802 HYPERVISOR: exec_cmd: vm extract_config Client-Geneva 
Aug 31 18:46:18.949 HYPERVISOR: exec_cmd: vm get_status Client-Geneva 
Aug 31 18:46:18.951 HYPERVISOR: exec_cmd: vm stop Client-Geneva 
Aug 31 18:46:19.040 VM: VM Client-Geneva shutdown.
Aug 31 18:46:19.041 HYPERVISOR: exec_cmd: vm extract_config Client-Geneva 
Aug 31 18:46:36.234 HYPERVISOR: exec_cmd: vm get_status Client-Geneva 
Aug 31 18:46:36.238 HYPERVISOR: exec_cmd: vm extract_config Client-Geneva 
Aug 31 18:46:36.242 HYPERVISOR: exec_cmd: vm delete Client-Geneva 
Aug 31 18:46:36.242 VM: VM Client-Geneva destroyed.
Aug 31 18:46:36.247 HYPERVISOR: exec_cmd: hypervisor stop 
Aug 31 18:46:36.743 HYPERVISOR: Stopped.
Aug 31 18:46:36.743 GENERAL: reset done.
