Apr 09 19:35:11.868 HYPERVISOR: Release 0.2.14-amd64/Linux (tag 2014092320)
Apr 09 19:35:11.868 HYPERVISOR: Started on IP = 127.0.0.1, TCP port = 7200.
Apr 09 19:35:11.878 HYPERVISOR: exec_cmd: hypervisor version 
Apr 09 19:35:11.878 HYPERVISOR: exec_cmd: hypervisor uuid 
Apr 09 19:35:11.878 HYPERVISOR: exec_cmd: hypervisor working_dir /home/actionmystique/Google Drive/Missions/Certifications/Cisco/Labs/GNS3/CCNP/TBSHOOT/L3 Technologies/Routing/Jean-Christophe/1+/Router-on-a-Stick/TT 1-linux/TT 1-linux-files/dynamips 
Apr 09 19:35:11.878 GENERAL: working_dir=/home/actionmystique/Google Drive/Missions/Certifications/Cisco/Labs/GNS3/CCNP/TBSHOOT/L3 Technologies/Routing/Jean-Christophe/1+/Router-on-a-Stick/TT 1-linux/TT 1-linux-files/dynamips
Apr 09 19:35:11.879 HYPERVISOR: exec_cmd: vm create ESW1 1 c3725 
Apr 09 19:35:11.930 VM: VM ESW1 created.
Apr 09 19:35:11.931 HYPERVISOR: exec_cmd: vm set_con_tcp_port ESW1 2001 
Apr 09 19:35:11.931 HYPERVISOR: exec_cmd: vm set_aux_tcp_port ESW1 2501 
Apr 09 19:35:11.931 HYPERVISOR: exec_cmd: c3725 get_mac_addr ESW1 
Apr 09 19:35:11.931 HYPERVISOR: exec_cmd: vm set_ios ESW1 /media/actionmystique/SAMSUNG-Ext4/Images/GNS3/IOS/c3725-adventerprisek9-mz.124-15.T10.image 
Apr 09 19:35:11.931 HYPERVISOR: exec_cmd: vm set_sparse_mem ESW1 1 
Apr 09 19:35:11.932 HYPERVISOR: exec_cmd: vm set_ram_mmap ESW1 1 
Apr 09 19:35:11.932 HYPERVISOR: exec_cmd: c3725 set_mac_addr ESW1 c201.3297.0000 
Apr 09 19:35:11.932 HYPERVISOR: exec_cmd: vm create Ghost 0 c7200 
Apr 09 19:35:11.932 VM: VM Ghost created.
Apr 09 19:35:11.932 HYPERVISOR: exec_cmd: vm set_ios Ghost /media/actionmystique/SAMSUNG-Ext4/Images/GNS3/IOS/c3725-adventerprisek9-mz.124-15.T10.image 
Apr 09 19:35:11.932 HYPERVISOR: exec_cmd: vm set_ghost_status Ghost 1 
Apr 09 19:35:11.932 HYPERVISOR: exec_cmd: vm set_ghost_file Ghost c3725-adventerprisek9-mz.124-15.T10.image-128.ghost 
Apr 09 19:35:11.932 HYPERVISOR: exec_cmd: vm get_status Ghost 
Apr 09 19:35:11.933 HYPERVISOR: exec_cmd: vm start Ghost 
Apr 09 19:35:13.008 HYPERVISOR: exec_cmd: vm get_status Ghost 
Apr 09 19:35:13.008 HYPERVISOR: exec_cmd: vm stop Ghost 
Apr 09 19:35:13.194 VM: VM Ghost shutdown.
Apr 09 19:35:13.194 HYPERVISOR: exec_cmd: vm clean_delete Ghost 
Apr 09 19:35:13.194 VM: VM Ghost destroyed.
Apr 09 19:35:13.196 HYPERVISOR: exec_cmd: vm set_ghost_status ESW1 2 
Apr 09 19:35:13.196 HYPERVISOR: exec_cmd: vm set_ghost_file ESW1 c3725-adventerprisek9-mz.124-15.T10.image-128.ghost 
Apr 09 19:35:13.211 HYPERVISOR: exec_cmd: vm set_config ESW1 configs/i1_startup-config.cfg 
Apr 09 19:35:13.211 HYPERVISOR: exec_cmd: vm set_config ESW1 configs/i1_startup-config.cfg configs/i1_private-config.cfg 
Apr 09 19:35:13.211 HYPERVISOR: exec_cmd: vm set_disk0 ESW1 1 
Apr 09 19:35:13.212 HYPERVISOR: exec_cmd: vm get_status ESW1 
Apr 09 19:35:13.212 HYPERVISOR: exec_cmd: vm set_idle_pc ESW1 0x614ac2c4 
Apr 09 19:35:13.212 HYPERVISOR: exec_cmd: vm set_nvram ESW1 256 
Apr 09 19:35:13.212 HYPERVISOR: exec_cmd: vm slot_add_binding ESW1 0 16 WIC-2T 
Apr 09 19:35:13.212 HYPERVISOR: exec_cmd: vm get_status ESW1 
Apr 09 19:35:13.212 HYPERVISOR: exec_cmd: vm slot_add_binding ESW1 1 0 NM-16ESW 
Apr 09 19:35:13.212 HYPERVISOR: exec_cmd: vm get_status ESW1 
Apr 09 19:35:13.215 HYPERVISOR: exec_cmd: nio create_udp_auto nio_udp_auto0 127.0.0.1 10001 20000 
Apr 09 19:35:13.217 HYPERVISOR: exec_cmd: nio create_udp_auto nio_udp_auto1 127.0.0.1 10001 20000 
Apr 09 19:35:13.218 HYPERVISOR: exec_cmd: nio create_udp_auto nio_udp_auto2 127.0.0.1 10001 20000 
Apr 09 19:35:13.265 HYPERVISOR: exec_cmd: nio connect_udp_auto nio_udp_auto0 127.0.0.1 20500 
Apr 09 19:35:13.265 HYPERVISOR: exec_cmd: vm slot_add_nio_binding ESW1 1 2 nio_udp_auto0 
Apr 09 19:35:13.265 HYPERVISOR: exec_cmd: vm get_status ESW1 
Apr 09 19:35:13.272 HYPERVISOR: exec_cmd: nio connect_udp_auto nio_udp_auto1 127.0.0.1 20501 
Apr 09 19:35:13.272 HYPERVISOR: exec_cmd: vm slot_add_nio_binding ESW1 1 1 nio_udp_auto1 
Apr 09 19:35:13.273 HYPERVISOR: exec_cmd: vm get_status ESW1 
Apr 09 19:35:13.278 HYPERVISOR: exec_cmd: nio connect_udp_auto nio_udp_auto2 127.0.0.1 40001 
Apr 09 19:35:13.279 HYPERVISOR: exec_cmd: vm slot_add_nio_binding ESW1 1 0 nio_udp_auto2 
Apr 09 19:35:13.279 HYPERVISOR: exec_cmd: vm get_status ESW1 
Apr 09 19:35:24.321 HYPERVISOR: exec_cmd: vm extract_config ESW1 
Apr 09 19:35:37.071 HYPERVISOR: exec_cmd: vm extract_config ESW1 
Apr 09 19:35:37.075 HYPERVISOR: exec_cmd: hypervisor stop 
