autostart = False
[127.0.0.1:7200]
    workingdir = C:\Users\ActionMystique\Documents\Missions\GNS3\Temp
    udp = 10000
    [[3640]]
        image = C:\Users\ActionMystique\Documents\Missions\IOS\Binaries\c3640-jk9o3s-mz.124-16a.bin
        ram = 192
        idlepc = 0x6307ad74
        sparsemem = True
        ghostios = True
        chassis = 3640
    [[ROUTER Coconut]]
        model = 3640
        console = 2016
        cnfg = configs/Coconut.cfg
        slot0 = NM-1FE-TX
        f0/0 = Palm f0/0
        slot1 = NM-1FE-TX
        f1/0 = Beach f0/0
        x = -629.091016542
        y = -188.87720036
    [[ROUTER Palm]]
        model = 3640
        console = 2015
        cnfg = configs/Palm.cfg
        slot0 = NM-1FE-TX
        f0/0 = Coconut f0/0
        x = -877.99260352
        y = -187.462986798
    [[ROUTER Beach]]
        model = 3640
        console = 2017
        cnfg = configs/Beach.cfg
        slot0 = NM-1FE-TX
        f0/0 = Coconut f1/0
        x = -741.52099475
        y = -24.8284271248
[GNS3-DATA]
    configs = configs
    m11 = 1.41421356237
    m22 = 1.41421356237
    [[NOTE 1]]
        text = .3
        x = -718.420489687
        y = -50.9878066911
        color = "#0000ff"
    [[NOTE 2]]
        text = .2
        x = -644.881384444
        y = -146.246212025
        color = "#0000ff"
    [[NOTE 3]]
        text = .2
        x = -650.538238693
        y = -190.592929113
        color = "#0000ff"
    [[NOTE 4]]
        text = .1
        x = -810.344371242
        y = -188.977705424
        color = "#0000ff"
    [[NOTE 5]]
        text = 192.168.23.0 /24
        x = -707.106781188
        y = -109.07463915
        color = "#0000ff"
    [[NOTE 6]]
        text = 192.168.12.0 /24
        x = -789.131167806
        y = -209.989898733
        color = "#0000ff"
    [[NOTE 7]]
        text = f0/0
        x = 63.391016591
        y = -18.7730132315
        interface = Beach f0/0
        color = "#323232"
    [[NOTE 8]]
        text = f0/0
        x = -35.9907323832
        y = 22.93437584
        interface = Coconut f0/0
        color = "#323232"
    [[NOTE 9]]
        text = f1/0
        x = 11.0942647833
        y = 42.9740233583
        interface = Coconut f1/0
        color = "#323232"
    [[NOTE 10]]
        text = f0/0
        x = 72.9993543545
        y = 21.7727309412
        interface = Palm f0/0
        color = "#323232"
