Aug 31 18:46:39.546 HYPERVISOR: Release 0.2.16-amd64/Linux (tag 2015060118)
Aug 31 18:46:39.546 HYPERVISOR: Started on IP = 127.0.0.1, TCP port = 55845.
Aug 31 18:46:39.572 HYPERVISOR: exec_cmd: hypervisor version 
Aug 31 18:46:39.573 HYPERVISOR: exec_cmd: hypervisor working_dir /media/actionmystique/SAMSUNG-850-Ext4/Labs/GNS3/Confederations/project-files/dynamips 
Aug 31 18:46:39.573 GENERAL: working_dir=/media/actionmystique/SAMSUNG-850-Ext4/Labs/GNS3/Confederations/project-files/dynamips
Aug 31 18:46:39.575 HYPERVISOR: exec_cmd: vm create London 4 c7200 
Aug 31 18:46:39.575 VM: VM London created.
Aug 31 18:46:39.576 HYPERVISOR: exec_cmd: vm set_con_tcp_port London 2105 
Aug 31 18:46:39.578 HYPERVISOR: exec_cmd: vm set_aux_tcp_port London 2505 
Aug 31 18:46:39.580 HYPERVISOR: exec_cmd: c7200 get_mac_addr London 
Aug 31 18:46:39.582 HYPERVISOR: exec_cmd: vm get_status London 
Aug 31 18:46:39.583 HYPERVISOR: exec_cmd: vm slot_add_binding London 0 0 C7200-IO-FE 
Aug 31 18:46:39.590 HYPERVISOR: exec_cmd: vm get_status London 
Aug 31 18:46:39.600 HYPERVISOR: exec_cmd: vm slot_add_binding London 2 0 PA-GE 
Aug 31 18:46:39.602 HYPERVISOR: exec_cmd: vm get_status London 
Aug 31 18:46:39.604 HYPERVISOR: exec_cmd: vm set_idle_pc London 0x6062d534 
Aug 31 18:46:39.605 HYPERVISOR: exec_cmd: vm set_ram London 512 
Aug 31 18:46:39.606 HYPERVISOR: exec_cmd: vm get_status London 
Aug 31 18:46:39.607 HYPERVISOR: exec_cmd: vm slot_add_binding London 1 0 PA-GE 
Aug 31 18:46:39.608 HYPERVISOR: exec_cmd: vm get_status London 
Aug 31 18:46:39.610 HYPERVISOR: exec_cmd: vm slot_add_binding London 3 0 PA-GE 
Aug 31 18:46:39.611 HYPERVISOR: exec_cmd: vm get_status London 
Aug 31 18:46:39.613 HYPERVISOR: exec_cmd: vm slot_remove_binding London 0 0 
Aug 31 18:46:39.619 HYPERVISOR: exec_cmd: vm get_status London 
Aug 31 18:46:39.623 HYPERVISOR: exec_cmd: vm slot_add_binding London 0 0 C7200-IO-GE-E 
Aug 31 18:46:39.624 HYPERVISOR: exec_cmd: vm set_ios London /media/actionmystique/SAMSUNG-850-Ext4/Images/GNS3/IOS/c7200-adventerprisek9-mz.152-4.M2.image 
Aug 31 18:46:39.629 HYPERVISOR: exec_cmd: vm get_status London 
Aug 31 18:46:39.630 HYPERVISOR: exec_cmd: vm slot_add_binding London 4 0 PA-GE 
Aug 31 18:46:39.631 HYPERVISOR: exec_cmd: vm set_config London configs/i4_startup-config.cfg 
Aug 31 18:46:40.115 HYPERVISOR: exec_cmd: vm extract_config London 
Aug 31 18:46:40.229 HYPERVISOR: exec_cmd: nio create_udp udp-62adc109-08a3-4a5f-ab26-e5434f2e2e31 15011 127.0.0.1 15010 
Aug 31 18:46:40.230 HYPERVISOR: exec_cmd: vm slot_add_nio_binding London 0 0 udp-62adc109-08a3-4a5f-ab26-e5434f2e2e31 
Aug 31 18:46:40.231 HYPERVISOR: exec_cmd: vm get_status London 
Aug 31 18:46:40.255 HYPERVISOR: exec_cmd: nio create_udp udp-8ecfd798-91b4-4c4a-9186-48e6532638a4 15014 127.0.0.1 15012 
Aug 31 18:46:40.255 HYPERVISOR: exec_cmd: vm slot_add_nio_binding London 1 0 udp-8ecfd798-91b4-4c4a-9186-48e6532638a4 
Aug 31 18:46:40.256 HYPERVISOR: exec_cmd: vm get_status London 
Aug 31 18:46:40.268 HYPERVISOR: exec_cmd: nio create_udp udp-558426f7-516e-4988-804a-1c4edd9041f2 15016 127.0.0.1 15013 
Aug 31 18:46:40.268 HYPERVISOR: exec_cmd: vm slot_add_nio_binding London 3 0 udp-558426f7-516e-4988-804a-1c4edd9041f2 
Aug 31 18:46:40.269 HYPERVISOR: exec_cmd: vm get_status London 
Aug 31 18:46:40.299 HYPERVISOR: exec_cmd: nio create_udp udp-d2fbe154-b9b3-4dbb-a5f2-c630b6fd1a7d 15015 127.0.0.1 15019 
Aug 31 18:46:40.299 HYPERVISOR: exec_cmd: vm slot_add_nio_binding London 2 0 udp-d2fbe154-b9b3-4dbb-a5f2-c630b6fd1a7d 
Aug 31 18:46:40.299 HYPERVISOR: exec_cmd: vm get_status London 
Aug 31 18:46:40.336 HYPERVISOR: exec_cmd: nio create_udp udp-b8a81491-b433-419d-9875-f470cc977050 15023 127.0.0.1 15022 
Aug 31 18:46:40.337 HYPERVISOR: exec_cmd: vm slot_add_nio_binding London 4 0 udp-b8a81491-b433-419d-9875-f470cc977050 
Aug 31 18:46:40.337 HYPERVISOR: exec_cmd: vm get_status London 
Aug 31 18:46:51.381 HYPERVISOR: exec_cmd: vm create Ghost 0 c7200 
Aug 31 18:46:51.381 VM: VM Ghost created.
Aug 31 18:46:51.383 HYPERVISOR: exec_cmd: vm set_ios Ghost /media/actionmystique/SAMSUNG-850-Ext4/Images/GNS3/IOS/c7200-adventerprisek9-mz.152-4.M2.image 
Aug 31 18:46:51.383 HYPERVISOR: exec_cmd: vm set_ghost_status Ghost 1 
Aug 31 18:46:51.383 HYPERVISOR: exec_cmd: vm set_ghost_file Ghost c7200-adventerprisek9-mz.152-4.M2.image-512.ghost 
Aug 31 18:46:51.384 HYPERVISOR: exec_cmd: vm set_ram Ghost 512 
Aug 31 18:46:51.384 HYPERVISOR: exec_cmd: vm get_status Ghost 
Aug 31 18:46:51.385 HYPERVISOR: exec_cmd: vm start Ghost 
Aug 31 18:46:51.665 HYPERVISOR: exec_cmd: vm get_status Ghost 
Aug 31 18:46:51.666 HYPERVISOR: exec_cmd: vm stop Ghost 
Aug 31 18:46:51.832 VM: VM Ghost shutdown.
Aug 31 18:46:51.832 HYPERVISOR: exec_cmd: vm clean_delete Ghost 
Aug 31 18:46:51.832 VM: VM Ghost destroyed.
Aug 31 18:46:51.834 HYPERVISOR: exec_cmd: vm set_ghost_status London 2 
Aug 31 18:46:51.834 HYPERVISOR: exec_cmd: vm set_ghost_file London c7200-adventerprisek9-mz.152-4.M2.image-512.ghost 
Aug 31 18:46:51.835 HYPERVISOR: exec_cmd: vm get_status London 
Aug 31 18:46:51.836 HYPERVISOR: exec_cmd: vm start London 
Aug 31 18:53:17.549 HYPERVISOR: exec_cmd: vm extract_config London 
Aug 31 18:53:19.282 HYPERVISOR: exec_cmd: vm get_status London 
Aug 31 18:53:19.282 HYPERVISOR: exec_cmd: vm stop London 
Aug 31 18:53:19.443 VM: VM London shutdown.
Aug 31 18:53:19.444 HYPERVISOR: exec_cmd: vm extract_config London 
Aug 31 18:53:20.785 HYPERVISOR: exec_cmd: vm get_status London 
Aug 31 18:53:20.787 HYPERVISOR: exec_cmd: vm extract_config London 
Aug 31 18:53:20.791 HYPERVISOR: exec_cmd: vm delete London 
Aug 31 18:53:20.791 VM: VM London destroyed.
Aug 31 18:53:20.794 HYPERVISOR: exec_cmd: hypervisor stop 
Aug 31 18:53:20.945 HYPERVISOR: Stopped.
Aug 31 18:53:20.945 GENERAL: reset done.
