Aug 31 18:46:39.463 HYPERVISOR: Release 0.2.16-amd64/Linux (tag 2015060118)
Aug 31 18:46:39.463 HYPERVISOR: Started on IP = 127.0.0.1, TCP port = 55486.
Aug 31 18:46:39.476 HYPERVISOR: exec_cmd: hypervisor version 
Aug 31 18:46:39.483 HYPERVISOR: exec_cmd: hypervisor working_dir /media/actionmystique/SAMSUNG-850-Ext4/Labs/GNS3/Confederations/project-files/dynamips 
Aug 31 18:46:39.483 GENERAL: working_dir=/media/actionmystique/SAMSUNG-850-Ext4/Labs/GNS3/Confederations/project-files/dynamips
Aug 31 18:46:39.487 HYPERVISOR: exec_cmd: vm create Paris 1 c7200 
Aug 31 18:46:39.487 VM: VM Paris created.
Aug 31 18:46:39.495 HYPERVISOR: exec_cmd: vm set_con_tcp_port Paris 2101 
Aug 31 18:46:39.507 HYPERVISOR: exec_cmd: vm set_aux_tcp_port Paris 2501 
Aug 31 18:46:39.511 HYPERVISOR: exec_cmd: c7200 get_mac_addr Paris 
Aug 31 18:46:39.513 HYPERVISOR: exec_cmd: vm get_status Paris 
Aug 31 18:46:39.515 HYPERVISOR: exec_cmd: vm slot_add_binding Paris 0 0 C7200-IO-FE 
Aug 31 18:46:39.517 HYPERVISOR: exec_cmd: vm get_status Paris 
Aug 31 18:46:39.517 HYPERVISOR: exec_cmd: vm slot_add_binding Paris 2 0 PA-GE 
Aug 31 18:46:39.520 HYPERVISOR: exec_cmd: vm get_status Paris 
Aug 31 18:46:39.522 HYPERVISOR: exec_cmd: vm set_idle_pc Paris 0x6062d534 
Aug 31 18:46:39.524 HYPERVISOR: exec_cmd: vm set_ram Paris 512 
Aug 31 18:46:39.526 HYPERVISOR: exec_cmd: vm get_status Paris 
Aug 31 18:46:39.528 HYPERVISOR: exec_cmd: vm slot_add_binding Paris 1 0 PA-GE 
Aug 31 18:46:39.531 HYPERVISOR: exec_cmd: vm get_status Paris 
Aug 31 18:46:39.533 HYPERVISOR: exec_cmd: vm slot_remove_binding Paris 0 0 
Aug 31 18:46:39.536 HYPERVISOR: exec_cmd: vm get_status Paris 
Aug 31 18:46:39.539 HYPERVISOR: exec_cmd: vm slot_add_binding Paris 0 0 C7200-IO-GE-E 
Aug 31 18:46:39.541 HYPERVISOR: exec_cmd: vm set_ios Paris /media/actionmystique/SAMSUNG-850-Ext4/Images/GNS3/IOS/c7200-adventerprisek9-mz.152-4.M2.image 
Aug 31 18:46:39.544 HYPERVISOR: exec_cmd: vm set_config Paris configs/i1_startup-config.cfg 
Aug 31 18:46:40.112 HYPERVISOR: exec_cmd: vm extract_config Paris 
Aug 31 18:46:40.127 HYPERVISOR: exec_cmd: nio create_udp udp-fb91d6eb-a55d-4277-b7d4-e24a8a82f03a 15001 127.0.0.1 15000 
Aug 31 18:46:40.130 HYPERVISOR: exec_cmd: vm slot_add_nio_binding Paris 1 0 udp-fb91d6eb-a55d-4277-b7d4-e24a8a82f03a 
Aug 31 18:46:40.131 HYPERVISOR: exec_cmd: vm get_status Paris 
Aug 31 18:46:40.211 HYPERVISOR: exec_cmd: nio create_udp udp-cc81a041-ac1d-4d0c-80b4-f9e8d2ba3fb4 15008 127.0.0.1 15009 
Aug 31 18:46:40.211 HYPERVISOR: exec_cmd: vm slot_add_nio_binding Paris 2 0 udp-cc81a041-ac1d-4d0c-80b4-f9e8d2ba3fb4 
Aug 31 18:46:40.215 HYPERVISOR: exec_cmd: vm get_status Paris 
Aug 31 18:46:40.317 HYPERVISOR: exec_cmd: nio create_udp udp-3884c2fe-68cb-468a-87e2-43bed3744ddc 15019 127.0.0.1 15015 
Aug 31 18:46:40.320 HYPERVISOR: exec_cmd: vm slot_add_nio_binding Paris 0 0 udp-3884c2fe-68cb-468a-87e2-43bed3744ddc 
Aug 31 18:46:40.323 HYPERVISOR: exec_cmd: vm get_status Paris 
Aug 31 18:46:52.071 HYPERVISOR: exec_cmd: vm set_ghost_status Paris 2 
Aug 31 18:46:52.072 HYPERVISOR: exec_cmd: vm set_ghost_file Paris c7200-adventerprisek9-mz.152-4.M2.image-512.ghost 
Aug 31 18:46:52.072 HYPERVISOR: exec_cmd: vm get_status Paris 
Aug 31 18:46:52.073 HYPERVISOR: exec_cmd: vm start Paris 
Aug 31 18:53:17.522 HYPERVISOR: exec_cmd: vm extract_config Paris 
Aug 31 18:53:19.388 HYPERVISOR: exec_cmd: vm get_status Paris 
Aug 31 18:53:19.388 HYPERVISOR: exec_cmd: vm stop Paris 
Aug 31 18:53:19.508 VM: VM Paris shutdown.
Aug 31 18:53:19.508 HYPERVISOR: exec_cmd: vm extract_config Paris 
Aug 31 18:53:20.784 HYPERVISOR: exec_cmd: vm get_status Paris 
Aug 31 18:53:20.786 HYPERVISOR: exec_cmd: vm extract_config Paris 
Aug 31 18:53:20.789 HYPERVISOR: exec_cmd: vm delete Paris 
Aug 31 18:53:20.789 VM: VM Paris destroyed.
Aug 31 18:53:20.793 HYPERVISOR: exec_cmd: hypervisor stop 
Aug 31 18:53:20.853 HYPERVISOR: Stopped.
Aug 31 18:53:20.853 GENERAL: reset done.
