autostart = False
version = 0.8.4-RC3
[127.0.0.1:7200]
    workingdir = working
    udp = 11000
    [[3725]]
        image = C:\Users\ActionMystique\Google Drive\Missions\Certifications\Cisco\IOS\Binaries\c3725-adventerprisek9-mz.124-15.T5.image
        ram = 128
        idlepc = 0x602649b4
        idlemax = 500
        sparsemem = True
    [[ROUTER ALS1]]
        model = 3725
        console = 2004
        aux = 2504
        cnfg = configs\ALS1.cfg
        slot1 = NM-16ESW
        f1/6 = NIO_udp:30000:127.0.0.1:20000
        f1/7 = DLS1 f1/7
        f1/8 = DLS1 f1/8
        f1/11 = ALS2 f1/11
        f1/12 = ALS2 f1/12
        symbol = EtherSwitch router
        x = -197.19545272
        y = 97.8483607908
        z = 1.0
        hx = 6.13558864609
        hy = 47.173714519
[127.0.0.1:7201]
    workingdir = working
    udp = 11100
    [[3725]]
        image = C:\Users\ActionMystique\Google Drive\Missions\Certifications\Cisco\IOS\Binaries\c3725-adventerprisek9-mz.124-15.T5.image
        ram = 128
        idlepc = 0x602649b4
        idlemax = 500
        sparsemem = True
        ghostios = True
    [[ROUTER ALS2]]
        model = 3725
        console = 2007
        aux = 2507
        cnfg = configs\ALS2.cfg
        slot1 = NM-16ESW
        f1/6 = NIO_udp:30001:127.0.0.1:20001
        f1/9 = DLS1 f1/9
        f1/10 = DLS1 f1/10
        f1/11 = ALS1 f1/11
        f1/12 = ALS1 f1/12
        symbol = EtherSwitch router
        x = 106.413446628
        y = 97.5468855488
        z = 1.0
        hx = 5.0
        hy = 45.0960307126
[127.0.0.1:7205]
    workingdir = working
    udp = 11500
    [[3725]]
        image = C:\Users\ActionMystique\Google Drive\Missions\Certifications\Cisco\IOS\Binaries\c3725-adventerprisek9-mz.124-15.T5.image
        ram = 128
        idlepc = 0x602649b4
        idlemax = 500
        sparsemem = True
        ghostios = True
    [[ROUTER DLS1]]
        model = 3725
        console = 2125
        aux = 2525
        cnfg = configs\DLS1.cfg
        slot1 = NM-16ESW
        f1/7 = ALS1 f1/7
        f1/8 = ALS1 f1/8
        f1/9 = ALS2 f1/9
        f1/10 = ALS2 f1/10
        symbol = EtherSwitch router
        x = -196.370121139
        y = -138.282982139
        z = 1.0
[GNS3-DATA]
    configs = configs
    workdir = working
    m11 = 0.766664172334
    m22 = 0.766664172334
    [[NOTE 1]]
        text = "5-2 IP SLA"
        x = -88.8185174027
        y = -502.443765273
        font = "MS Shell Dlg 2,20,-1,5,75,0,1,0,0,0"
        color = "#0055ff"
    [[NOTE 2]]
        text = "1: Configure the host IP settings.\n2: Configure basic switch parameters.\n3: Configure trunks and EtherChannels between switches.\n4: Configure VTP client on ALS1 and ALS2.\n5: Configure VTP server on DLS1.\n6: Configure access ports.\n7: Configure DLS1 as PVST+ Root primary for VLANs 1,100,200\n8: Configure VLAN interfaces and enable routing on DLS1.\n9: Configure ALS1 and ALS2 as IP SLA responders for UDP jitter.\n10: Configure an IP SLA ICMP echo operation on DLS1 with ALS1 & ALS2.\n11: configure an IP SLA UDP jitter operation on DLS1 with ALS1 & ALS2 and IP SLA communication port is 5000.\n12: Monitor IP SLAs operations: configuration, application, responder, statistics"
        x = -832.176620512
        y = -465.91452028
    [[NOTE 3]]
        text = "         Payroll\n       VLAN 100\n172.16.100.101/24"
        x = -400.436085418
        y = 152.348360791
        color = "#0055ff"
    [[NOTE 4]]
        text = "     Engineering\n       VLAN 200\n172.16.200.101/24"
        x = 238.696428768
        y = 149.304937698
        color = "#0055ff"
    [[NOTE 5]]
        text = "VLAN 1: 172.16.1.1/24\nVLAN 100: 172.16.100.1/24\nVLAN 200: 172.16.200.1/24"
        x = -386.088212651
        y = -143.304644884
        color = "#0055ff"
    [[NOTE 6]]
        text = "   EtherChannel\nAll 802.1Q Trunks"
        x = -127.826502837
        y = 25.3914910698
        color = "#0055ff"
    [[NOTE 7]]
        text = "VLAN 1: 172.16.1.101/24"
        x = -253.044301534
        y = 161.913934651
        color = "#0055ff"
    [[NOTE 8]]
        text = "VLAN 1: 172.16.1.102/24"
        x = 50.8697307209
        y = 159.739949465
        color = "#0055ff"
    [[Cloud Host_A]]
        symbol = Host
        x = -367.71848193
        y = 91.8047424883
        z = 1.0
        connections = ALS1:f1/6:NIO_udp:30000:127.0.0.1:20000
    [[Cloud Host_B]]
        symbol = Host
        x = 265.544447942
        y = 91.8047424883
        z = 1.0
        connections = ALS2:f1/6:NIO_udp:30001:127.0.0.1:20001
