Jan 30 17:10:30.014 HYPERVISOR: Release 0.2.14-amd64/Linux (tag 2014092320)
Jan 30 17:10:30.014 HYPERVISOR: Started on IP = 127.0.0.1, TCP port = 7200.
Jan 30 17:10:30.022 HYPERVISOR: exec_cmd: hypervisor version 
Jan 30 17:10:30.022 HYPERVISOR: exec_cmd: hypervisor uuid 
Jan 30 17:10:30.022 HYPERVISOR: exec_cmd: hypervisor working_dir /home/actionmystique/Google Drive/Missions/Certifications/Cisco/Labs/GNS3/CCNP-SP/SPROUTE/EIGRP/Jean-Christophe/1+/L3 EtherChannel with CSR 1000V-linux/L3 EtherChannel with CSR 1000V-linux-files/dynamips 
Jan 30 17:10:30.022 GENERAL: working_dir=/home/actionmystique/Google Drive/Missions/Certifications/Cisco/Labs/GNS3/CCNP-SP/SPROUTE/EIGRP/Jean-Christophe/1+/L3 EtherChannel with CSR 1000V-linux/L3 EtherChannel with CSR 1000V-linux-files/dynamips
Jan 30 17:10:30.022 HYPERVISOR: exec_cmd: vm create SW0_Management 1 c3725 
Jan 30 17:10:30.023 VM: VM SW0_Management created.
Jan 30 17:10:30.023 HYPERVISOR: exec_cmd: vm set_con_tcp_port SW0_Management 2001 
Jan 30 17:10:30.023 HYPERVISOR: exec_cmd: vm set_aux_tcp_port SW0_Management 2501 
Jan 30 17:10:30.023 HYPERVISOR: exec_cmd: c3725 get_mac_addr SW0_Management 
Jan 30 17:10:30.023 HYPERVISOR: exec_cmd: vm set_ram SW0_Management 256 
Jan 30 17:10:30.023 HYPERVISOR: exec_cmd: vm set_ios SW0_Management /media/actionmystique/SAMSUNG-Ext4/Images/GNS3/IOS/c3725-adventerprisek9-mz.124-15.T10.image 
Jan 30 17:10:30.024 HYPERVISOR: exec_cmd: vm set_sparse_mem SW0_Management 1 
Jan 30 17:10:30.024 HYPERVISOR: exec_cmd: vm set_ram_mmap SW0_Management 1 
Jan 30 17:10:30.024 HYPERVISOR: exec_cmd: vm set_con_tcp_port SW0_Management 2105 
Jan 30 17:10:30.024 HYPERVISOR: exec_cmd: vm set_aux_tcp_port SW0_Management 2505 
Jan 30 17:10:30.024 HYPERVISOR: exec_cmd: c3725 set_mac_addr SW0_Management c201.15f4.0000 
Jan 30 17:10:30.024 HYPERVISOR: exec_cmd: vm create Ghost 0 c7200 
Jan 30 17:10:30.025 VM: VM Ghost created.
Jan 30 17:10:30.025 HYPERVISOR: exec_cmd: vm set_ios Ghost /media/actionmystique/SAMSUNG-Ext4/Images/GNS3/IOS/c3725-adventerprisek9-mz.124-15.T10.image 
Jan 30 17:10:30.025 HYPERVISOR: exec_cmd: vm set_ghost_status Ghost 1 
Jan 30 17:10:30.025 HYPERVISOR: exec_cmd: vm set_ghost_file Ghost c3725-adventerprisek9-mz.124-15.T10.image-256.ghost 
Jan 30 17:10:30.025 HYPERVISOR: exec_cmd: vm set_ram Ghost 256 
Jan 30 17:10:30.025 HYPERVISOR: exec_cmd: vm get_status Ghost 
Jan 30 17:10:30.028 HYPERVISOR: exec_cmd: vm start Ghost 
Jan 30 17:10:31.226 HYPERVISOR: exec_cmd: vm get_status Ghost 
Jan 30 17:10:31.226 HYPERVISOR: exec_cmd: vm stop Ghost 
Jan 30 17:10:31.310 VM: VM Ghost shutdown.
Jan 30 17:10:31.310 HYPERVISOR: exec_cmd: vm clean_delete Ghost 
Jan 30 17:10:31.310 VM: VM Ghost destroyed.
Jan 30 17:10:31.311 HYPERVISOR: exec_cmd: vm set_ghost_status SW0_Management 2 
Jan 30 17:10:31.311 HYPERVISOR: exec_cmd: vm set_ghost_file SW0_Management c3725-adventerprisek9-mz.124-15.T10.image-256.ghost 
Jan 30 17:10:31.325 HYPERVISOR: exec_cmd: vm set_config SW0_Management configs/i1_startup-config.cfg 
Jan 30 17:10:31.326 HYPERVISOR: exec_cmd: vm get_status SW0_Management 
Jan 30 17:10:31.326 HYPERVISOR: exec_cmd: vm slot_add_binding SW0_Management 1 0 NM-16ESW 
Jan 30 17:10:31.326 HYPERVISOR: exec_cmd: vm get_status SW0_Management 
Jan 30 17:10:31.326 HYPERVISOR: exec_cmd: vm get_status SW0_Management 
Jan 30 17:10:31.326 HYPERVISOR: exec_cmd: vm set_idle_pc SW0_Management 0x6026b804 
Jan 30 17:10:31.339 HYPERVISOR: exec_cmd: nio create_tap nio_tap0 tap1 
Jan 30 17:10:31.339 HYPERVISOR: exec_cmd: vm slot_add_nio_binding SW0_Management 1 0 nio_tap0 
Jan 30 17:10:31.340 HYPERVISOR: exec_cmd: vm get_status SW0_Management 
Jan 30 17:10:31.341 HYPERVISOR: exec_cmd: nio create_udp_auto nio_udp_auto0 127.0.0.1 10001 20000 
Jan 30 17:10:31.342 HYPERVISOR: exec_cmd: nio create_udp_auto nio_udp_auto1 127.0.0.1 10001 20000 
Jan 30 17:10:31.383 HYPERVISOR: exec_cmd: nio connect_udp_auto nio_udp_auto0 127.0.0.1 40007 
Jan 30 17:10:31.383 HYPERVISOR: exec_cmd: vm slot_add_nio_binding SW0_Management 1 1 nio_udp_auto0 
Jan 30 17:10:31.383 HYPERVISOR: exec_cmd: vm get_status SW0_Management 
Jan 30 17:10:31.395 HYPERVISOR: exec_cmd: nio connect_udp_auto nio_udp_auto1 127.0.0.1 40008 
Jan 30 17:10:31.395 HYPERVISOR: exec_cmd: vm slot_add_nio_binding SW0_Management 1 2 nio_udp_auto1 
Jan 30 17:10:31.395 HYPERVISOR: exec_cmd: vm get_status SW0_Management 
Jan 30 17:11:00.000 HYPERVISOR: exec_cmd: vm get_status SW0_Management 
Jan 30 17:11:00.001 HYPERVISOR: exec_cmd: vm start SW0_Management 
Jan 30 17:11:00.001 GHOST: loaded ghost image c3725-adventerprisek9-mz.124-15.T10.image-256.ghost (fd=15) at addr=0x7fd65c000000 (size=0x10000000)
Jan 30 17:11:00.001 GHOST: loaded image c3725-adventerprisek9-mz.124-15.T10.image-256.ghost successfully.
Jan 30 17:21:16.746 HYPERVISOR: exec_cmd: vm extract_config SW0_Management 
Jan 30 17:29:47.207 HYPERVISOR: exec_cmd: vm extract_config SW0_Management 
Jan 30 17:29:53.450 HYPERVISOR: exec_cmd: vm get_status SW0_Management 
Jan 30 17:29:53.450 HYPERVISOR: exec_cmd: vm stop SW0_Management 
Jan 30 17:29:53.546 GHOST: unloaded ghost image c3725-adventerprisek9-mz.124-15.T10.image-256.ghost (fd=15) at addr=0x7fd65c000000 (size=0x10000000)
Jan 30 17:29:53.557 VM: VM SW0_Management shutdown.
Jan 30 17:29:55.505 HYPERVISOR: exec_cmd: vm extract_config SW0_Management 
Jan 30 17:29:55.507 HYPERVISOR: exec_cmd: hypervisor stop 
