autostart = False
version = 0.8.3.1
[127.0.0.1:7200]
    workingdir = C:\Users\ActionMystique\AppData\Local\Temp\GNS3
    udp = 10000
    [[3640]]
        image = C:\Users\ActionMystique\Google Drive\Missions\Certifications\Cisco\Labs\GNS3\IOS\Binaries\c3640-jk9o3s-mz.124-16a.bin
        idlepc = 0x6093b400
        sparsemem = True
        ghostios = True
        chassis = 3640
    [[ROUTER SanJose]]
        model = 3640
        console = 2005
        aux = 2100
        cnfg = Core - BGP Challenge Lab 1_configs\SanJose.cfg
        slot0 = NM-4T
        s0/0 = ISP1 s0/0
        s0/1 = ISP2 s0/0
        x = -36.0
        y = -180.0
        z = 1.0
    [[ROUTER ISP1]]
        model = 3640
        console = 2003
        aux = 2102
        cnfg = Core - BGP Challenge Lab 1_configs\ISP1.cfg
        slot0 = NM-4T
        s0/0 = SanJose s0/0
        x = -212.0
        y = 107.0
        z = 1.0
    [[ROUTER ISP2]]
        model = 3640
        console = 2004
        aux = 2101
        cnfg = Core - BGP Challenge Lab 1_configs\ISP2.cfg
        slot0 = NM-4T
        s0/0 = SanJose s0/1
        x = 166.0
        y = 106.0
        z = 1.0
[GNS3-DATA]
    configs = Core - BGP Challenge Lab 1_configs
    [[NOTE 1]]
        text = "----172.16.0.0/30"
        x = 99.0
        y = -23.5
    [[NOTE 2]]
        text = "AS 100"
        x = -35.0
        y = -222.5
    [[NOTE 3]]
        text = "Loopback0: 201.0.1.1/24"
        x = -262.0
        y = 146.5
    [[NOTE 4]]
        text = "Loopback0: 192.168.0.1/24\nLoopback1: 192.168.1.1/24"
        x = 33.0
        y = -175.5
    [[NOTE 5]]
        text = "10.0.0.0/30----"
        x = -205.0
        y = -22.5
    [[NOTE 6]]
        text = "AS 200"
        x = -207.0
        y = 171.5
    [[NOTE 7]]
        text = "Loopback0: 203.0.0.1/24"
        x = 106.0
        y = 148.5
    [[NOTE 8]]
        text = "AS 300"
        x = 180.0
        y = 172.5
    [[SHAPE 1]]
        type = ellipse
        x = -109.0
        y = -229.0
        width = 200.0
        height = 119.0
        border_style = 2
    [[SHAPE 2]]
        type = ellipse
        x = -281.0
        y = 103.0
        width = 200.0
        height = 101.0
        border_style = 2
    [[SHAPE 3]]
        type = ellipse
        x = 100.0
        y = 102.0
        width = 200.0
        height = 98.0
        border_style = 2
