autostart = False
version = 0.8.2
[127.0.0.1:7202]
    udp = 10200
    [[7200]]
        image = ..\..\..\..\..\..\..\IOS\Binaries\c7200-adventerprisek9-mz.124-24.T.image
        idlepc = 0x6307ad74
        sparsemem = True
        ghostios = True
    [[ROUTER R4]]
        console = 2007
        aux = 2107
        cnfg = configs\R4.cfg
        slot0 = C7200-IO-GE-E
        g0/0 = R8 g0/0
        slot1 = PA-8T
        s1/0 = RD1 s1/3
        s1/1 = RD5 s1/1
        s1/2 = R10 s1/1
        slot2 = PA-2FE-TX
        slot3 = PA-2FE-TX
        slot4 = PA-2FE-TX
        slot5 = PA-2FE-TX
        x = 107.0
        y = 107.0
        z = 1.0
    [[ROUTER RD1]]
        console = 2004
        aux = 2104
        cnfg = configs\RD1.cfg
        slot0 = C7200-IO-GE-E
        g0/0 = R3 g0/0
        slot1 = PA-8T
        s1/0 = R7 s1/0
        s1/1 = R2 s1/0
        s1/2 = R8 s1/0
        s1/3 = R4 s1/0
        x = -128.0
        y = -30.0
        z = 1.0
[127.0.0.1:7203]
    udp = 10300
    [[7200]]
        image = ..\..\..\..\..\..\..\IOS\Binaries\c7200-adventerprisek9-mz.124-24.T.image
        idlepc = 0x6307ad74
        sparsemem = True
        ghostios = True
    [[ROUTER RD5]]
        console = 2006
        aux = 2106
        cnfg = configs\RD5.cfg
        slot0 = C7200-IO-GE-E
        slot1 = PA-8T
        s1/0 = R3 s1/0
        s1/1 = R4 s1/1
        s1/2 = R6 s1/0
        x = 56.5979797464
        y = 281.518289963
        z = 1.0
    [[ROUTER R6]]
        console = 2008
        aux = 2108
        cnfg = configs\R6.cfg
        slot0 = C7200-IO-GE-E
        slot1 = PA-8T
        s1/0 = RD5 s1/2
        s1/1 = RD9 s1/1
        x = -126.338095117
        y = 375.394011027
        z = 1.0
[127.0.0.1:7200]
    udp = 10000
    [[7200]]
        image = ..\..\..\..\..\..\..\IOS\Binaries\c7200-adventerprisek9-mz.124-24.T.image
        idlepc = 0x6307ad74
        sparsemem = True
        ghostios = True
    [[ROUTER R3]]
        console = 2003
        aux = 2103
        cnfg = configs\R3.cfg
        slot0 = C7200-IO-GE-E
        g0/0 = RD1 g0/0
        slot1 = PA-8T
        s1/0 = RD5 s1/0
        x = -5.50252531694
        y = 107.455844123
        z = 1.0
    [[ROUTER R8]]
        console = 2000
        aux = 2100
        cnfg = configs\R8.cfg
        slot0 = C7200-IO-GE-E
        g0/0 = R4 g0/0
        slot1 = PA-8T
        s1/0 = RD1 s1/2
        s1/1 = R10 s1/0
        s1/2 = RD33 s1/1
        x = 107.0
        y = -181.0
        z = 1.0
[127.0.0.1:7201]
    udp = 10100
    [[7200]]
        image = ..\..\..\..\..\..\..\IOS\Binaries\c7200-adventerprisek9-mz.124-24.T.image
        idlepc = 0x6307ad74
        sparsemem = True
        ghostios = True
    [[ROUTER R7]]
        console = 2001
        aux = 2101
        cnfg = configs\R7.cfg
        slot0 = C7200-IO-GE-E
        g0/0 = R2 g0/0
        slot1 = PA-8T
        s1/0 = RD1 s1/0
        s1/1 = RD11 s1/1
        s1/2 = RD33 s1/0
        x = -351.0
        y = -181.0
        z = 1.0
    [[ROUTER R2]]
        console = 2002
        aux = 2102
        cnfg = configs\R2.cfg
        slot0 = C7200-IO-GE-E
        g0/0 = R7 g0/0
        slot1 = PA-8T
        s1/0 = RD1 s1/1
        s1/1 = RD9 s1/0
        s1/2 = RD11 s1/0
        x = -348.0
        y = 110.0
        z = 1.0
[127.0.0.1:7206]
    udp = 10600
    [[7200]]
        image = ..\..\..\..\..\..\..\IOS\Binaries\c7200-adventerprisek9-mz.124-24.T.image
        idlepc = 0x6307ad74
        sparsemem = True
        ghostios = True
    [[ROUTER RD33]]
        console = 2014
        aux = 2114
        cnfg = configs\RD33.cfg
        slot0 = C7200-IO-GE-E
        g0/0 = R13 g0/0
        slot1 = PA-8T
        s1/0 = R7 s1/2
        s1/1 = R8 s1/2
        x = -124.757359313
        y = -102.100505063
        z = 1.0
    [[ROUTER R12]]
        console = 2013
        aux = 2113
        cnfg = configs\R12.cfg
        slot0 = C7200-IO-2FE
        f0/0 = RD11 f0/0
        x = -597.271211387
        y = -20.5857864376
        z = 1.0
[127.0.0.1:7207]
    udp = 10700
    [[7200]]
        image = ..\..\..\..\..\..\..\IOS\Binaries\c7200-adventerprisek9-mz.124-24.T.image
        idlepc = 0x6307ad74
        sparsemem = True
        ghostios = True
    [[ROUTER R13]]
        console = 2015
        aux = 2115
        cnfg = configs\R13.cfg
        slot0 = C7200-IO-GE-E
        g0/0 = RD33 g0/0
        slot1 = PA-GE
        x = -125.0
        y = -227.0
        z = 1.0
[127.0.0.1:7204]
    udp = 10400
    [[7200]]
        image = ..\..\..\..\..\..\..\IOS\Binaries\c7200-adventerprisek9-mz.124-24.T.image
        idlepc = 0x6307ad74
        sparsemem = True
        ghostios = True
    [[ROUTER RD9]]
        console = 2009
        aux = 2109
        cnfg = configs\RD9.cfg
        slot0 = C7200-IO-GE-E
        slot1 = PA-8T
        s1/0 = R2 s1/1
        s1/1 = R6 s1/1
        x = -266.345237791
        y = 279.227488785
        z = 1.0
    [[ROUTER R9]]
        console = 2010
        aux = 2110
        cnfg = configs\R9.cfg
        slot0 = C7200-IO-GE-E
        g0/0 = R10 g0/0
        slot1 = PA-2FE-TX
        x = 426.619407771
        y = -48.8700576851
        z = 1.0
[127.0.0.1:7205]
    udp = 10500
    [[7200]]
        image = ..\..\..\..\..\..\..\IOS\Binaries\c7200-adventerprisek9-mz.124-24.T.image
        idlepc = 0x6307ad74
        sparsemem = True
        ghostios = True
    [[ROUTER RD11]]
        console = 2012
        aux = 2112
        cnfg = configs\RD11.cfg
        slot0 = C7200-IO-2FE
        f0/0 = R12 f0/0
        slot1 = PA-8T
        s1/0 = R2 s1/2
        s1/1 = R7 s1/1
        x = -445.950360213
        y = -22.0
        z = 1.0
    [[ROUTER R10]]
        console = 2011
        aux = 2111
        cnfg = configs\R10.cfg
        slot0 = C7200-IO-GE-E
        g0/0 = R9 g0/0
        slot1 = PA-8T
        s1/0 = R8 s1/1
        s1/1 = R4 s1/2
        x = 273.884343035
        y = -48.8700576851
        z = 1.0
[GNS3-DATA]
    configs = configs
    m11 = 0.707106781187
    m22 = 0.707106781187
    [[NOTE 1]]
        text = 38.3/28
        x = -60.8111831815
        y = -100.284271248
    [[NOTE 2]]
        text = -----
        x = -286.414213562
        y = 120.928932188
    [[NOTE 3]]
        text = ||
        x = -182.433549546
        y = 10.2253967444
        color = "#ffaa00"
    [[NOTE 4]]
        text = 37.3/28
        x = -181.019335984
        y = -99.8822509939
    [[NOTE 5]]
        text = OSPF
        x = 237.57568517
        y = 205.945309579
        font = "MS Shell Dlg 2,14,-1,5,75,0,0,0,0,0"
        color = "#0055ff"
    [[NOTE 6]]
        text = 133.3/28
        x = -96.1665222408
        y = -143.923881554
    [[NOTE 7]]
        text = 172.30.0.0/16
        x = -312.541197283
        y = -255.244732728
        font = "MS Shell Dlg 2,12,-1,5,75,0,0,0,0,0"
        color = "#0055ff"
    [[NOTE 8]]
        text = 35.3/29
        x = -19.7989898735
        y = 162.156420973
    [[NOTE 9]]
        text = OSPFv3
        x = 419.655987697
        y = -147.72583002
        font = "MS Shell Dlg 2,14,-1,5,75,0,0,0,0,0"
        color = "#ffaa7f"
    [[NOTE 10]]
        text = NSSA
        x = 178.261976671
        y = 191.719912835
        font = "MS Shell Dlg 2,12,-1,5,75,0,0,0,0,0"
        color = "#0000ff"
    [[NOTE 11]]
        text = :6::6/64
        x = -182.433549545
        y = 383.986940139
        color = "#ff5500"
    [[NOTE 12]]
        text = ||
        x = -115.965512115
        y = 122.3574311
        color = "#ffaa00"
    [[NOTE 13]]
        text = Transition through ISATAP Tunnel
        x = -66.468037431
        y = -381.109739779
        font = "MS Shell Dlg 2,20,-1,5,75,0,1,0,0,0"
        color = "#ffaa00"
    [[NOTE 14]]
        text = ||
        x = -115.965512115
        y = 262.3574311
        color = "#ffaa00"
    [[NOTE 15]]
        text = :4::9/64
        x = 499.217387519
        y = -22.9045455705
        color = "#ff5500"
    [[NOTE 16]]
        text = :5::5/64
        x = -8.48528137343
        y = 315.702668892
        color = "#ff5500"
    [[NOTE 17]]
        text = ||
        x = -48.0832611207
        y = 45.9827560573
        color = "#ffaa00"
    [[NOTE 18]]
        text = ---------------------------
        x = 168.291413922
        y = 120.936074863
    [[NOTE 19]]
        text = :6::9/64
        x = -236.173664915
        y = 320.548339959
        color = "#ff5500"
    [[NOTE 20]]
        text = ||
        x = -148.492424049
        y = 259.529003975
        color = "#ffaa00"
    [[NOTE 21]]
        text = 104.10/28
        x = 212.132034356
        y = -8.76240994689
    [[NOTE 22]]
        text = ||
        x = -115.965512115
        y = 102.3574311
        color = "#ffaa00"
    [[NOTE 23]]
        text = |
        x = -259.414213562
        y = 120.928932188
    [[NOTE 24]]
        text = 38.8/28
        x = 38.1837661846
        y = -152.811183182
    [[NOTE 25]]
        text = ||
        x = -48.0832611207
        y = -14.0172439427
        color = "#ffaa00"
    [[NOTE 26]]
        text = AS 1
        x = -195.230447378
        y = -196.774603256
        font = "MS Shell Dlg 2,12,-1,5,75,0,0,0,0,0"
        color = "#0055ff"
    [[NOTE 27]]
        text = 41.4/24
        x = 330.925973595
        y = 79.3279938485
    [[NOTE 28]]
        text = 45.24/28
        x = 332.340187157
        y = 132.465078838
    [[NOTE 29]]
        text = 48.4/25
        x = 106.066017178
        y = 64.173664916
    [[NOTE 30]]
        text = Stub Area 4
        x = -145.46385335
        y = -272.086219713
        font = "MS Shell Dlg 2,12,-1,5,75,0,0,0,0,0"
        color = "#0000ff"
    [[NOTE 31]]
        text = 42.4/25
        x = 332.340187157
        y = 93.671139599
    [[NOTE 32]]
        text = 108.10/28
        x = 195.161471608
        y = -64.1177490062
    [[NOTE 33]]
        text = 44.4/27
        x = 332.340187157
        y = 118.121933088
    [[NOTE 34]]
        text = 3.3/25
        x = -56.5685424951
        y = 138.114790413
    [[NOTE 35]]
        text = L11 172.31.112.11
        x = -489.31789258
        y = 42.5512985521
        color = "#ff5500"
    [[NOTE 36]]
        text = OSPF
        x = 83.0731598524
        y = -291.774603256
        font = "MS Shell Dlg 2,14,-1,5,75,0,0,0,0,0"
        color = "#0055ff"
    [[NOTE 37]]
        text = ===
        x = -45.2548339959
        y = 274.281312655
        color = "#ffaa00"
    [[NOTE 38]]
        text = 4.4/25
        x = 62.2253967441
        y = 135.085353161
    [[NOTE 39]]
        text = OSPF
        x = 458.1930009
        y = 115.23463146
        font = "MS Shell Dlg 2,14,-1,5,75,0,0,0,0,0"
        color = "#0055ff"
    [[NOTE 40]]
        text = 172.16.0.0/16
        x = -155.190908859
        y = -299.65685425
        font = "MS Shell Dlg 2,12,-1,5,75,0,0,0,0,0"
        color = "#0000ff"
    [[NOTE 41]]
        text = 48.8/25
        x = 108.894444302
        y = -115.632467632
    [[NOTE 42]]
        text = T10 2001:0:1:1000:0:5EFE:AC10:6D0A/64
        x = 272.943217539
        y = 6.39191898575
        color = "#ff5500"
    [[NOTE 43]]
        text = 2001:0:1/48
        x = 118.620274323
        y = 347.317892582
        font = "MS Shell Dlg 2,12,-1,5,75,0,0,0,0,0"
        color = "#ff5500"
    [[NOTE 44]]
        text = =======
        x = 100.409162928
        y = -39.4730880652
        color = "#ffaa00"
    [[NOTE 45]]
        text = L10 172.16.109.10
        x = 275.771644662
        y = 23.362481734
        color = "#ff5500"
    [[NOTE 46]]
        text = ||
        x = -182.433549546
        y = 30.2253967444
        color = "#ffaa00"
    [[NOTE 47]]
        text = 17.7/28
        x = -296.984848098
        y = -139.48023074
    [[NOTE 48]]
        text = ||
        x = -148.492424049
        y = 239.529003975
        color = "#ffaa00"
    [[NOTE 49]]
        text = T9 2001:0:1:1000::0:5EFE:AC1E:4509/64
        x = -531.744299451
        y = 308.021428025
        color = "#ff5500"
    [[NOTE 50]]
        text = :1::C/64
        x = -545.886435075
        y = 12.8528137424
        color = "#ff5500"
    [[NOTE 51]]
        text = 35.5/29
        x = 9.89949493635
        y = 262.766594028
    [[NOTE 52]]
        text = ISATAP\nTunnel
        x = -131.5218613
        y = 53.7609306503
        font = "MS Shell Dlg 2,12,-1,5,75,0,0,0,0,0"
        color = "#ffaa00"
    [[NOTE 53]]
        text = -----
        x = 76.0883117542
        y = 121.154328932
    [[NOTE 54]]
        text = ||
        x = -148.492424049
        y = 219.529003975
        color = "#ffaa00"
    [[NOTE 55]]
        text = ||
        x = -115.965512115
        y = 142.3574311
        color = "#ffaa00"
    [[NOTE 56]]
        text = T11 2001:0:1:1000::0:5EFE:AC1F:700B/64
        x = -489.31789258
        y = 26.7939392393
        color = "#ff5500"
    [[NOTE 57]]
        text = 18.2/30
        x = 65.0538238696
        y = -129.781745931
    [[NOTE 58]]
        text = -----
        x = 486.950360213
        y = -37.6375182659
    [[NOTE 59]]
        text = |
        x = 72.7918471984
        y = 119.727922061
    [[NOTE 60]]
        text = ||
        x = -48.0832611207
        y = -34.0172439427
        color = "#ffaa00"
    [[NOTE 61]]
        text = 172.16.0.0/16
        x = -98.6223663643
        y = 206.430590952
        font = "MS Shell Dlg 2,12,-1,5,75,0,0,0,0,0"
        color = "#0000ff"
    [[NOTE 62]]
        text = |
        x = 325.936074863
        y = 102.154328933
    [[NOTE 63]]
        text = 5 kbits/s
        x = -233.345237791
        y = -139.279220613
    [[NOTE 64]]
        text = -->
        x = -213.703102167
        y = -381.511760033
        font = "MS Shell Dlg 2,20,-1,5,75,0,1,0,0,0"
        color = "#ffaa00"
    [[NOTE 65]]
        text = 14.1/30
        x = -60.8111831815
        y = -10.9878066913
    [[NOTE 66]]
        text = 104.4/28
        x = 156.977705424
        y = 79.119841047
    [[NOTE 67]]
        text = 13.3/24
        x = -55.154328932
        y = 98.9188309202
    [[NOTE 68]]
        text = =======
        x = -43.8406204335
        y = -39.674098192
        color = "#ffaa00"
    [[NOTE 69]]
        text = T5 2001:0:1:1000:0:5EFE:AC1E:3805/64
        x = 131.521861301
        y = 306.406204335
        color = "#ff5500"
    [[NOTE 70]]
        text = :3::A/64
        x = 321.026478659
        y = -16.6375182658
        color = "#ff5500"
    [[NOTE 71]]
        text = ||
        x = -148.492424049
        y = 179.529003975
        color = "#ffaa00"
    [[NOTE 72]]
        text = -----
        x = 74.0
        y = -173.0
    [[NOTE 73]]
        text = =======
        x = -16.9705627479
        y = 274.080302528
        color = "#ffaa00"
    [[NOTE 74]]
        text = ||
        x = -148.492424049
        y = 159.529003975
        color = "#ffaa00"
    [[NOTE 75]]
        text = L9 172.30.69.9
        x = -528.915872328
        y = 292.465078838
        color = "#ff5500"
    [[NOTE 76]]
        text = 18.1/30
        x = -62.2253967439
        y = -48.9705627485
    [[NOTE 77]]
        text = OSPF
        x = -124.816233816
        y = -335.414213562
        font = "MS Shell Dlg 2,14,-1,5,75,0,0,0,0,0"
        color = "#0055ff"
    [[NOTE 78]]
        text = 12.1/30
        x = -168.291413922
        y = -12.2010101268
    [[NOTE 79]]
        text = ||
        x = -115.965512115
        y = 242.3574311
        color = "#ffaa00"
    [[NOTE 80]]
        text = EIGRPv6
        x = 235.808224589
        y = 345.633693121
        font = "MS Shell Dlg 2,14,-1,5,75,0,0,0,0,0"
        color = "#ffaa7f"
    [[NOTE 81]]
        text = =======
        x = -115.965512114
        y = 274.281312655
        color = "#ffaa00"
    [[NOTE 82]]
        text = 117.11/28
        x = -398.808224589
        y = -35.2304473779
    [[NOTE 83]]
        text = ||
        x = -182.433549546
        y = 50.2253967444
        color = "#ffaa00"
    [[NOTE 84]]
        text = ||
        x = -115.965512115
        y = 222.3574311
        color = "#ffaa00"
    [[NOTE 85]]
        text = 29.2/28
        x = -301.227488785
        y = 147.203102168
    [[NOTE 86]]
        text = 14.2/30
        x = 63.6396103072
        y = 87.806132548
    [[NOTE 87]]
        text = 46.4/29
        x = 332.340187157
        y = 146.808224589
    [[NOTE 88]]
        text = |
        x = 325.936074863
        y = 120.740115371
    [[NOTE 89]]
        text = |
        x = 71.0
        y = -174.0
    [[NOTE 90]]
        text = 47.1/30
        x = 332.340187157
        y = 161.151370339
    [[NOTE 91]]
        text = AS 2
        x = -120.076118446
        y = 289.33008589
        font = "MS Shell Dlg 2,12,-1,5,75,0,0,0,0,0"
        color = "#ff5500"
    [[NOTE 92]]
        text = 2.2/23
        x = -250.31580054
        y = 122.960461481
    [[NOTE 93]]
        text = 43.4/26
        x = 330.925973595
        y = 106.198051534
    [[NOTE 94]]
        text = Area 1
        x = 172.605122421
        y = 211.719912835
        font = "MS Shell Dlg 2,12,-1,5,75,0,0,0,0,0"
        color = "#0000ff"
    [[NOTE 95]]
        text = |
        x = -636.106781186
        y = -10.1522368916
    [[NOTE 96]]
        text = ======
        x = -223.445742855
        y = 271.854905783
        color = "#ffaa00"
    [[NOTE 97]]
        text = RIPng
        x = -586.813275223
        y = -117.495382642
        font = "MS Shell Dlg 2,14,-1,5,75,0,0,0,0,0"
        color = "#ffaa7f"
    [[NOTE 98]]
        text = 27.7/23
        x = -330.925973595
        y = -117.053823869
    [[NOTE 99]]
        text = 37.7/28
        x = -282.842712474
        y = -158.066017178
    [[NOTE 100]]
        text = 211.2/28
        x = -397.394011026
        y = 82.3502884254
    [[NOTE 101]]
        text = ||
        x = -148.492424049
        y = 199.529003975
        color = "#ffaa00"
    [[NOTE 102]]
        text = ||
        x = -115.965512115
        y = 162.3574311
        color = "#ffaa00"
    [[NOTE 103]]
        text = =======
        x = 28.284271248
        y = -39.8751083189
        color = "#ffaa00"
    [[NOTE 104]]
        text = ||
        x = -48.0832611207
        y = 5.98275605726
        color = "#ffaa00"
    [[NOTE 105]]
        text = ||
        x = -48.0832611207
        y = 25.9827560573
        color = "#ffaa00"
    [[NOTE 106]]
        text = 2001:0:1/48
        x = -609.699710298
        y = -88.0588745021
        font = "MS Shell Dlg 2,12,-1,5,75,0,0,0,0,0"
        color = "#ff5500"
    [[NOTE 107]]
        text = 8.8/25
        x = 53.7401153699
        y = -187.556349186
    [[NOTE 108]]
        text = 17.1/28
        x = -189.504617357
        y = -40.2842712475
    [[NOTE 109]]
        text = |
        x = 515.063058585
        y = -40.0517318282
    [[NOTE 110]]
        text = ||
        x = -115.965512115
        y = 182.3574311
        color = "#ffaa00"
    [[NOTE 111]]
        text = IPv4
        x = -295.905771059
        y = -381.511760033
        font = "MS Shell Dlg 2,20,-1,5,75,0,1,0,0,0"
        color = "#00aaff"
    [[NOTE 112]]
        text = 45.5/29
        x = 103.237590053
        y = 258.322943215
    [[NOTE 113]]
        text = :2::C/64
        x = -660.437733627
        y = -25.5319625684
        color = "#ff5500"
    [[NOTE 114]]
        text = 12.2/30
        x = -294.156420973
        y = 85.1787155501
    [[NOTE 115]]
        text = |
        x = 325.936074863
        y = 158.521861301
    [[NOTE 116]]
        text = :3::9/64
        x = 405.879292402
        y = -12.5958877055
        color = "#ff5500"
    [[NOTE 117]]
        text = ||
        x = -182.433549546
        y = -9.77460325562
        color = "#ffaa00"
    [[NOTE 118]]
        text = :1::B/64
        x = -504.874241766
        y = -28.3603896933
        color = "#ff5500"
    [[NOTE 119]]
        text = 108.8/28
        x = 168.291413923
        y = -152.0
    [[NOTE 120]]
        text = 172.16.0.0/16
        x = 51.2842712475
        y = -255.615223689
        font = "MS Shell Dlg 2,12,-1,5,75,0,0,0,0,0"
        color = "#0000ff"
    [[NOTE 121]]
        text = ==
        x = -158.391918985
        y = 271.050865276
        color = "#ffaa00"
    [[NOTE 122]]
        text = |
        x = -262.0
        y = -180.0
    [[NOTE 123]]
        text = |
        x = 325.936074863
        y = 140.338095117
    [[NOTE 124]]
        text = 2001:0:1/48
        x = 404.291413923
        y = -117.958369439
        font = "MS Shell Dlg 2,12,-1,5,75,0,0,0,0,0"
        color = "#ff5500"
    [[NOTE 125]]
        text = ||
        x = -148.492424049
        y = 119.529003975
        color = "#ffaa00"
    [[NOTE 126]]
        text = ||
        x = -148.492424049
        y = 139.529003975
        color = "#ffaa00"
    [[NOTE 127]]
        text = 172.16.0.0/16
        x = 252.102597104
        y = 178.347329832
        font = "MS Shell Dlg 2,12,-1,5,75,0,0,0,0,0"
        color = "#0000ff"
    [[NOTE 128]]
        text = ||
        x = -115.965512115
        y = 202.3574311
        color = "#ffaa00"
    [[NOTE 129]]
        text = =======
        x = -321.026478658
        y = -17.2476913209
        color = "#ffaa00"
    [[NOTE 130]]
        text = ======
        x = -386.080302528
        y = -16.4436508139
        color = "#ffaa00"
    [[NOTE 131]]
        text = 7.7/23
        x = -292.742207411
        y = -192.208152802
    [[NOTE 132]]
        text = 13.1/24
        x = -74.9533188052
        y = 15.681240867
    [[NOTE 133]]
        text = 29.9/28
        x = -318.198051534
        y = 254.482322781
    [[NOTE 134]]
        text = 133.13/28
        x = -123.036579926
        y = -183.722871427
    [[NOTE 135]]
        text = 211.11/28
        x = -387.49451609
        y = 8.61017305527
    [[NOTE 136]]
        text = |
        x = 325.936074863
        y = 82.154328933
    [[NOTE 137]]
        text = ||
        x = -148.492424049
        y = 99.5290039755
        color = "#ffaa00"
    [[NOTE 138]]
        text = Backbone
        x = -36.3969696196
        y = -196.017243943
        font = "MS Shell Dlg 2,12,-1,5,75,0,0,0,0,0"
        color = "#0000ff"
    [[NOTE 139]]
        text = :5::6/64
        x = -62.2253967436
        y = 376.7148622
        color = "#ff5500"
    [[NOTE 140]]
        text = -----
        x = -289.0
        y = -179.0
    [[NOTE 141]]
        text = IPv6
        x = -148.114357137
        y = -381.212770159
        font = "MS Shell Dlg 2,20,-1,5,75,0,1,0,0,0"
        color = "#ffaa7f"
    [[NOTE 142]]
        text = =======
        x = -248.901586977
        y = -17.4487014477
        color = "#ffaa00"
    [[NOTE 143]]
        text = -----
        x = -630.278354061
        y = -9.15223689162
    [[NOTE 144]]
        text = Stub Area 3
        x = 200.889393668
        y = 146.264068712
        font = "MS Shell Dlg 2,12,-1,5,75,0,0,0,0,0"
        color = "#0000ff"
    [[NOTE 145]]
        text = =======
        x = 199.404112295
        y = -39.6740981921
        color = "#ffaa00"
    [[NOTE 146]]
        text = 117.7/28
        x = -388.908729652
        y = -141.095454429
    [[NOTE 147]]
        text = EIGRP
        x = -287.0
        y = -287.0
        font = "MS Shell Dlg 2,14,-1,5,75,0,0,0,0,0"
        color = "#0055ff"
    [[NOTE 148]]
        text = |
        x = -7.81832585685
        y = 135.083261121
    [[NOTE 149]]
        text = L5 172.30.56.5
        x = 131.5218613
        y = 290.849855149
        color = "#ff5500"
    [[NOTE 150]]
        text = ===
        x = 171.119841047
        y = -39.4730880651
        color = "#ffaa00"
    [[NOTE 151]]
        text = 45.4/29
        x = 110.308657865
        y = 150.641702347
    [[Cloud 6to4]]
        x = -184.151803615
        y = 42.7817459305
        z = 1.0
    [[SHAPE 1]]
        type = ellipse
        x = -117.379725677
        y = 131.521861301
        width = 353.553390593
        height = 178.190908859
        fill_color = "#00aaff"
        border_color = "#0055ff"
        border_style = 2
        z = -2.0
    [[SHAPE 2]]
        type = ellipse
        x = 157.989898733
        y = 77.7817459305
        width = 299.813275223
        height = 131.521861301
        fill_color = "#00aaff"
        border_color = "#0055ff"
        border_style = 2
        z = -2.0
    [[SHAPE 3]]
        type = ellipse
        x = -707.508801439
        y = -86.6690475576
        width = 299.813275223
        height = 178.190908859
        fill_color = "#ffaa7f"
        border_color = "#0055ff"
        border_style = 2
        z = -2.0
    [[SHAPE 4]]
        type = ellipse
        x = -92.6568542495
        y = -260.242640687
        width = 399.0
        height = 400.956890143
        fill_color = "#00aaff"
        border_color = "#0055ff"
        border_style = 2
        z = -2.0
    [[SHAPE 5]]
        type = ellipse
        x = -414.364573775
        y = 289.913780286
        width = 648.604255869
        height = 145.663996925
        fill_color = "#ffaa7f"
        border_color = "#0055ff"
        border_style = 2
        z = -2.0
    [[SHAPE 6]]
        type = ellipse
        x = -408.585786438
        y = -257.0
        width = 322.0
        height = 561.05591591
        fill_color = "#00ffff"
        border_color = "#0055ff"
        border_style = 2
        z = -2.0
    [[SHAPE 7]]
        type = ellipse
        x = 305.269119346
        y = -117.580735803
        width = 299.813275223
        height = 178.190908859
        fill_color = "#ffaa7f"
        border_color = "#0055ff"
        border_style = 2
        z = -2.0
    [[SHAPE 8]]
        type = ellipse
        x = -144.730880654
        y = -304.0
        width = 102.730880654
        height = 204.610173056
        fill_color = "#00aaff"
        border_color = "#0055ff"
        border_style = 2
        z = -2.0
