Aug 17 09:46:52.725 HYPERVISOR: Release 0.2.16-amd64/Linux (tag 2015060118)
Aug 17 09:46:52.725 HYPERVISOR: Started on IP = 127.0.0.1, TCP port = 39475.
Aug 17 09:46:52.736 HYPERVISOR: exec_cmd: hypervisor version 
Aug 17 09:46:52.736 HYPERVISOR: exec_cmd: hypervisor working_dir /media/actionmystique/SAMSUNG-850-Ext4/Labs/GNS3/CCNP/TBSHOOT/Infrastructure-Services/DHCP-NAT/Jean-Christophe_Manciot/1+/DHCPv6/TT 1-solutions-linux/project-files/dynamips 
Aug 17 09:46:52.736 GENERAL: working_dir=/media/actionmystique/SAMSUNG-850-Ext4/Labs/GNS3/CCNP/TBSHOOT/Infrastructure-Services/DHCP-NAT/Jean-Christophe_Manciot/1+/DHCPv6/TT 1-solutions-linux/project-files/dynamips
Aug 17 09:46:52.737 HYPERVISOR: exec_cmd: vm create ESW2 2 c3725 
Aug 17 09:46:52.737 VM: VM ESW2 created.
Aug 17 09:46:52.737 HYPERVISOR: exec_cmd: vm set_con_tcp_port ESW2 2002 
Aug 17 09:46:52.737 HYPERVISOR: exec_cmd: vm set_aux_tcp_port ESW2 2502 
Aug 17 09:46:52.738 HYPERVISOR: exec_cmd: c3725 get_mac_addr ESW2 
Aug 17 09:46:52.738 HYPERVISOR: exec_cmd: vm set_nvram ESW2 256 
Aug 17 09:46:52.738 HYPERVISOR: exec_cmd: vm set_ios ESW2 /media/actionmystique/SAMSUNG-850-Ext4/Images/GNS3/IOS/c3725-adventerprisek9-mz.124-15.T10.image 
Aug 17 09:46:52.739 HYPERVISOR: exec_cmd: vm get_status ESW2 
Aug 17 09:46:52.739 HYPERVISOR: exec_cmd: vm set_idle_pc ESW2 0x60c06d20 
Aug 17 09:46:52.739 HYPERVISOR: exec_cmd: vm slot_add_binding ESW2 0 16 WIC-2T 
Aug 17 09:46:52.740 HYPERVISOR: exec_cmd: vm get_status ESW2 
Aug 17 09:46:52.740 HYPERVISOR: exec_cmd: vm slot_add_binding ESW2 1 0 NM-16ESW 
Aug 17 09:46:52.740 HYPERVISOR: exec_cmd: c3725 set_mac_addr ESW2 c202.28c2.0000 
Aug 17 09:46:52.741 HYPERVISOR: exec_cmd: vm set_disk0 ESW2 1 
Aug 17 09:46:52.741 HYPERVISOR: exec_cmd: vm set_config ESW2 configs/i2_startup-config.cfg 
Aug 17 09:46:52.742 HYPERVISOR: exec_cmd: vm set_config ESW2 configs/i2_startup-config.cfg configs/i2_private-config.cfg 
Aug 17 09:46:52.805 HYPERVISOR: exec_cmd: nio create_tap tap-949352bb-2d75-4394-92fd-b248b9491766 tap0 
Aug 17 09:46:52.807 HYPERVISOR: exec_cmd: vm slot_add_nio_binding ESW2 1 1 tap-949352bb-2d75-4394-92fd-b248b9491766 
Aug 17 09:46:52.808 HYPERVISOR: exec_cmd: vm get_status ESW2 
Aug 17 09:46:52.892 HYPERVISOR: exec_cmd: nio create_udp udp-b641ba96-d80b-45ed-ad9c-f8f80bae19e7 15002 127.0.0.1 15004 
Aug 17 09:46:52.899 HYPERVISOR: exec_cmd: vm slot_add_nio_binding ESW2 1 0 udp-b641ba96-d80b-45ed-ad9c-f8f80bae19e7 
Aug 17 09:46:52.899 HYPERVISOR: exec_cmd: vm get_status ESW2 
Aug 17 09:46:55.528 HYPERVISOR: exec_cmd: vm set_ghost_status ESW2 2 
Aug 17 09:46:55.529 HYPERVISOR: exec_cmd: vm set_ghost_file ESW2 c3725-adventerprisek9-mz.124-15.T10.image-128.ghost 
Aug 17 09:46:55.530 HYPERVISOR: exec_cmd: vm get_status ESW2 
Aug 17 09:46:55.530 HYPERVISOR: exec_cmd: vm start ESW2 
Aug 17 09:57:39.094 HYPERVISOR: exec_cmd: vm extract_config ESW2 
Aug 17 10:27:20.289 HYPERVISOR: exec_cmd: vm extract_config ESW2 
Aug 17 10:29:20.393 HYPERVISOR: exec_cmd: vm extract_config ESW2 
Aug 17 10:29:22.682 HYPERVISOR: exec_cmd: vm get_status ESW2 
Aug 17 10:29:22.685 HYPERVISOR: exec_cmd: vm stop ESW2 
Aug 17 10:29:22.781 VM: VM ESW2 shutdown.
Aug 17 10:29:22.782 HYPERVISOR: exec_cmd: vm extract_config ESW2 
Aug 17 10:30:06.472 HYPERVISOR: exec_cmd: vm get_status ESW2 
Aug 17 10:30:06.474 HYPERVISOR: exec_cmd: vm extract_config ESW2 
Aug 17 10:30:06.475 HYPERVISOR: exec_cmd: vm delete ESW2 
Aug 17 10:30:06.475 VM: VM ESW2 destroyed.
Aug 17 10:30:06.476 HYPERVISOR: exec_cmd: hypervisor stop 
Aug 17 10:30:06.765 HYPERVISOR: Stopped.
Aug 17 10:30:06.765 GENERAL: reset done.
